SC12_ALL.csv

Model,MSO58
Channel,CH6,,Channel,CH7,,Channel,CH8,,Channel,MATH1
Waveform Type,ANALOG,,Waveform Type,ANALOG,,Waveform Type,ANALOG,,Waveform Type,ANALOG
Horizontal Units,s,,Horizontal Units,s,,Horizontal Units,s,,Horizontal Units,s
Sample Interval,1.60000000e-09,,Sample Interval,1.60000000e-09,,Sample Interval,1.60000000e-09,,Sample Interval,1.60000000e-09
Record Length,12500,,Record Length,12500,,Record Length,12500,,Record Length,12500
Zero Index,2324.10000000,,Zero Index,2324.10000000,,Zero Index,2324.10000000,,Zero Index,2324.10000000
Vertical Units,V,,Vertical Units,V,,Vertical Units,A,,Vertical Units,J
,,,,,,,,,,
ANALOG_Thumbnail,,,ANALOG_Thumbnail,,,ANALOG_Thumbnail,,,,
yOffset,0.000000,,yOffset,0.000000,,yOffset,0.000000,,,
yPosition,-0.860000,,yPosition,-2.100000,,yPosition,-2.940000,,,

TIME,CH6,CH7,CH8,,TIME,MATH1
-3.71856000e-06,-4.12031250e+00,2.11554688e+03,6.32812500e+00,,-3.71856000e-06,2.14199117e-05
-3.71696000e-06,-4.00468750e+00,2.11484375e+03,5.14062500e+00,,-3.71696000e-06,4.08271626e-05
-3.71536000e-06,-4.10468750e+00,2.11492188e+03,4.46875000e+00,,-3.71536000e-06,5.70853044e-05
-3.71376000e-06,-4.10000000e+00,2.11843750e+03,4.84375000e+00,,-3.71376000e-06,7.28550949e-05
-3.71216000e-06,-4.00625000e+00,2.11539062e+03,5.53125000e+00,,-3.71216000e-06,9.04246408e-05
-3.71056000e-06,-4.06875000e+00,2.11906250e+03,4.89062500e+00,,-3.71056000e-06,1.08076078e-04
-3.70896000e-06,-4.11093750e+00,2.11500000e+03,5.21875000e+00,,-3.70896000e-06,1.25197039e-04
-3.70736000e-06,-4.04531250e+00,2.10789062e+03,5.82812500e+00,,-3.70736000e-06,1.43855199e-04
-3.70576000e-06,-4.04218750e+00,2.11351562e+03,4.59375000e+00,,-3.70576000e-06,1.61450414e-04
-3.70416000e-06,-4.11250000e+00,2.11703125e+03,3.93750000e+00,,-3.70416000e-06,1.75886235e-04
-3.70256000e-06,-3.97187500e+00,2.11156250e+03,5.37500000e+00,,-3.70256000e-06,1.91634608e-04
-3.70096000e-06,-4.07500000e+00,2.11281250e+03,5.01562500e+00,,-3.70096000e-06,2.09191989e-04
-3.69936000e-06,-4.12343750e+00,2.11812500e+03,4.79687500e+00,,-3.69936000e-06,2.25797950e-04
-3.69776000e-06,-4.05781250e+00,2.11421875e+03,5.98437500e+00,,-3.69776000e-06,2.44048075e-04
-3.69616000e-06,-3.93750000e+00,2.11039062e+03,5.60937500e+00,,-3.69616000e-06,2.63640279e-04
-3.69456000e-06,-4.12187500e+00,2.11359375e+03,4.06250000e+00,,-3.69456000e-06,2.79979839e-04
-3.69296000e-06,-4.15312500e+00,2.11234375e+03,6.12500000e+00,,-3.69296000e-06,2.97199498e-04
-3.69136000e-06,-4.05000000e+00,2.11226562e+03,4.96875000e+00,,-3.69136000e-06,3.15946236e-04
-3.68976000e-06,-4.14843750e+00,2.11351562e+03,4.40625000e+00,,-3.68976000e-06,3.31792631e-04
-3.68816000e-06,-4.11406250e+00,2.11765625e+03,4.79687500e+00,,-3.68816000e-06,3.47369292e-04
-3.68656000e-06,-3.96718750e+00,2.11078125e+03,4.50000000e+00,,-3.68656000e-06,3.63094616e-04
-3.68496000e-06,-4.17031250e+00,2.11539062e+03,3.79687500e+00,,-3.68496000e-06,3.77118937e-04
-3.68336000e-06,-4.15468750e+00,2.11281250e+03,4.82812500e+00,,-3.68336000e-06,3.91705165e-04
-3.68176000e-06,-3.93906250e+00,2.10609375e+03,4.39062500e+00,,-3.68176000e-06,4.07263549e-04
-3.68016000e-06,-4.07656250e+00,2.11539062e+03,3.54687500e+00,,-3.68016000e-06,4.20663622e-04
-3.67856000e-06,-4.04218750e+00,2.11367188e+03,3.95312500e+00,,-3.67856000e-06,4.33350535e-04
-3.67696000e-06,-4.00937500e+00,2.10796875e+03,6.12500000e+00,,-3.67696000e-06,4.50364081e-04
-3.67536000e-06,-4.04375000e+00,2.11414062e+03,4.17187500e+00,,-3.67536000e-06,4.67749080e-04
-3.67376000e-06,-4.04218750e+00,2.11570312e+03,3.93750000e+00,,-3.67376000e-06,4.81469498e-04
-3.67216000e-06,-4.12343750e+00,2.10960938e+03,5.35937500e+00,,-3.67216000e-06,4.97178931e-04
-3.67056000e-06,-3.97812500e+00,2.10968750e+03,4.39062500e+00,,-3.67056000e-06,5.13634179e-04
-3.66896000e-06,-4.10937500e+00,2.11273438e+03,3.95312500e+00,,-3.66896000e-06,5.27725962e-04
-3.66736000e-06,-4.13750000e+00,2.11390625e+03,5.78125000e+00,,-3.66736000e-06,5.44184295e-04
-3.66576000e-06,-3.91875000e+00,2.10921875e+03,4.73437500e+00,,-3.66576000e-06,5.61949797e-04
-3.66416000e-06,-4.01718750e+00,2.11328125e+03,3.95312500e+00,,-3.66416000e-06,5.76621736e-04
-3.66256000e-06,-4.10156250e+00,2.11796875e+03,4.32812500e+00,,-3.66256000e-06,5.90638432e-04
-3.66096000e-06,-3.90625000e+00,2.11648438e+03,4.81250000e+00,,-3.66096000e-06,6.06120389e-04
-3.65936000e-06,-4.03437500e+00,2.11578125e+03,3.95312500e+00,,-3.65936000e-06,6.20960025e-04
-3.65776000e-06,-4.11093750e+00,2.11867188e+03,3.71875000e+00,,-3.65776000e-06,6.33954245e-04
-3.65616000e-06,-4.09687500e+00,2.11101562e+03,4.46875000e+00,,-3.65616000e-06,6.47804176e-04
-3.65456000e-06,-4.09687500e+00,2.11453125e+03,5.09375000e+00,,-3.65456000e-06,6.63967745e-04
-3.65296000e-06,-4.05937500e+00,2.11757812e+03,3.28125000e+00,,-3.65296000e-06,6.78143115e-04
-3.65136000e-06,-4.10468750e+00,2.11039062e+03,5.57812500e+00,,-3.65136000e-06,6.93119364e-04
-3.64976000e-06,-4.02500000e+00,2.11421875e+03,4.10937500e+00,,-3.64976000e-06,7.09487475e-04
-3.64816000e-06,-4.02968750e+00,2.11593750e+03,3.48437500e+00,,-3.64816000e-06,7.22336117e-04
-3.64656000e-06,-4.01406250e+00,2.11523438e+03,5.95312500e+00,,-3.64656000e-06,7.38308125e-04
-3.64496000e-06,-4.05000000e+00,2.11882812e+03,4.23437500e+00,,-3.64496000e-06,7.55559478e-04
-3.64336000e-06,-4.02968750e+00,2.11765625e+03,3.57812500e+00,,-3.64336000e-06,7.68798811e-04
-3.64176000e-06,-4.06562500e+00,2.11703125e+03,4.92187500e+00,,-3.64176000e-06,7.83196418e-04
-3.64016000e-06,-3.97812500e+00,2.11601562e+03,4.43750000e+00,,-3.64016000e-06,7.99044094e-04
-3.63856000e-06,-4.07031250e+00,2.11390625e+03,3.48437500e+00,,-3.63856000e-06,8.12448445e-04
-3.63696000e-06,-4.17343750e+00,2.11187500e+03,4.42187500e+00,,-3.63696000e-06,8.25811701e-04
-3.63536000e-06,-3.98593750e+00,2.11101562e+03,4.65625000e+00,,-3.63536000e-06,8.41145986e-04
-3.63376000e-06,-4.09531250e+00,2.11218750e+03,4.20312500e+00,,-3.63376000e-06,8.56111757e-04
-3.63216000e-06,-4.10468750e+00,2.11398438e+03,5.12500000e+00,,-3.63216000e-06,8.71881319e-04
-3.63056000e-06,-3.99218750e+00,2.11164062e+03,4.76562500e+00,,-3.63056000e-06,8.88599257e-04
-3.62896000e-06,-4.00156250e+00,2.11125000e+03,4.54687500e+00,,-3.62896000e-06,9.04329587e-04
-3.62736000e-06,-4.10468750e+00,2.11632812e+03,3.89062500e+00,,-3.62736000e-06,9.18596343e-04
-3.62576000e-06,-4.00468750e+00,2.11187500e+03,5.40625000e+00,,-3.62576000e-06,9.34317301e-04
-3.62416000e-06,-4.04687500e+00,2.11515625e+03,4.15625000e+00,,-3.62416000e-06,9.50484071e-04
-3.62256000e-06,-4.10312500e+00,2.11804688e+03,3.62500000e+00,,-3.62256000e-06,9.63659317e-04
-3.62096000e-06,-4.15625000e+00,2.11273438e+03,5.95312500e+00,,-3.62096000e-06,9.79863573e-04
-3.61936000e-06,-4.10312500e+00,2.11281250e+03,4.64062500e+00,,-3.61936000e-06,9.97769297e-04
-3.61776000e-06,-4.15156250e+00,2.11523438e+03,3.12500000e+00,,-3.61776000e-06,1.01090118e-03
-3.61616000e-06,-4.07968750e+00,2.11460938e+03,5.57812500e+00,,-3.61616000e-06,1.02562574e-03
-3.61456000e-06,-3.98125000e+00,2.11023438e+03,4.34375000e+00,,-3.61456000e-06,1.04239525e-03
-3.61296000e-06,-4.04218750e+00,2.11359375e+03,4.28125000e+00,,-3.61296000e-06,1.05696742e-03
-3.61136000e-06,-4.16718750e+00,2.11640625e+03,5.46875000e+00,,-3.61136000e-06,1.07346580e-03
-3.60976000e-06,-3.93750000e+00,2.11031250e+03,4.37500000e+00,,-3.60976000e-06,1.09011121e-03
-3.60816000e-06,-4.09062500e+00,2.11640625e+03,4.48437500e+00,,-3.60816000e-06,1.10508990e-03
-3.60656000e-06,-4.12812500e+00,2.11984375e+03,4.04687500e+00,,-3.60656000e-06,1.11954554e-03
-3.60496000e-06,-4.00781250e+00,2.11046875e+03,4.82812500e+00,,-3.60496000e-06,1.13456021e-03
-3.60336000e-06,-4.04531250e+00,2.11390625e+03,4.09375000e+00,,-3.60336000e-06,1.14963495e-03
-3.60176000e-06,-4.07031250e+00,2.11703125e+03,3.45312500e+00,,-3.60176000e-06,1.16240629e-03
-3.60016000e-06,-3.93437500e+00,2.10976562e+03,4.60937500e+00,,-3.60016000e-06,1.17603433e-03
-3.59856000e-06,-3.98750000e+00,2.11304688e+03,4.56250000e+00,,-3.59856000e-06,1.19152677e-03
-3.59696000e-06,-4.04062500e+00,2.11242188e+03,3.78125000e+00,,-3.59696000e-06,1.20562944e-03
-3.59536000e-06,-4.06093750e+00,2.10992188e+03,5.89062500e+00,,-3.59536000e-06,1.22196251e-03
-3.59376000e-06,-3.99843750e+00,2.10984375e+03,5.06250000e+00,,-3.59376000e-06,1.24045042e-03
-3.59216000e-06,-4.02187500e+00,2.11398438e+03,3.31250000e+00,,-3.59216000e-06,1.25459733e-03
-3.59056000e-06,-4.07031250e+00,2.11242188e+03,6.10937500e+00,,-3.59056000e-06,1.27052388e-03
-3.58896000e-06,-3.97968750e+00,2.11265625e+03,4.92187500e+00,,-3.58896000e-06,1.28916698e-03
-3.58736000e-06,-4.04218750e+00,2.11367188e+03,4.82812500e+00,,-3.58736000e-06,1.30564964e-03
-3.58576000e-06,-4.06562500e+00,2.11343750e+03,5.26562500e+00,,-3.58576000e-06,1.32271659e-03
-3.58416000e-06,-3.91406250e+00,2.10812500e+03,4.78125000e+00,,-3.58416000e-06,1.33968308e-03
-3.58256000e-06,-3.99062500e+00,2.11125000e+03,5.23437500e+00,,-3.58256000e-06,1.35658751e-03
-3.58096000e-06,-4.05468750e+00,2.11640625e+03,5.03125000e+00,,-3.58096000e-06,1.37394690e-03
-3.57936000e-06,-3.95000000e+00,2.10953125e+03,5.90625000e+00,,-3.57936000e-06,1.39243295e-03
-3.57776000e-06,-4.02656250e+00,2.11359375e+03,4.98437500e+00,,-3.57776000e-06,1.41082844e-03
-3.57616000e-06,-4.09843750e+00,2.11539062e+03,4.15625000e+00,,-3.57616000e-06,1.42629002e-03
-3.57456000e-06,-4.08437500e+00,2.10960938e+03,5.54687500e+00,,-3.57456000e-06,1.44268514e-03
-3.57296000e-06,-4.03437500e+00,2.10898438e+03,5.15625000e+00,,-3.57296000e-06,1.46074605e-03
-3.57136000e-06,-4.06875000e+00,2.11546875e+03,4.20312500e+00,,-3.57136000e-06,1.47655886e-03
-3.56976000e-06,-4.08281250e+00,2.11039062e+03,6.70312500e+00,,-3.56976000e-06,1.49498915e-03
-3.56816000e-06,-4.09375000e+00,2.11210938e+03,4.32812500e+00,,-3.56816000e-06,1.51361933e-03
-3.56656000e-06,-4.10937500e+00,2.11804688e+03,4.56250000e+00,,-3.56656000e-06,1.52866333e-03
-3.56496000e-06,-4.11093750e+00,2.11492188e+03,5.06250000e+00,,-3.56496000e-06,1.54495961e-03
-3.56336000e-06,-4.01562500e+00,2.11562500e+03,4.54687500e+00,,-3.56336000e-06,1.56122062e-03
-3.56176000e-06,-4.05937500e+00,2.11648438e+03,4.01562500e+00,,-3.56176000e-06,1.57571537e-03
-3.56016000e-06,-4.12343750e+00,2.12078125e+03,4.54687500e+00,,-3.56016000e-06,1.59022887e-03
-3.55856000e-06,-3.98906250e+00,2.11093750e+03,5.31250000e+00,,-3.55856000e-06,1.60691468e-03
-3.55696000e-06,-4.13125000e+00,2.11445312e+03,5.20312500e+00,,-3.55696000e-06,1.62468757e-03
-3.55536000e-06,-4.05000000e+00,2.11867188e+03,4.62500000e+00,,-3.55536000e-06,1.64132810e-03
-3.55376000e-06,-3.97968750e+00,2.11117188e+03,5.18750000e+00,,-3.55376000e-06,1.65792857e-03
-3.55216000e-06,-4.03281250e+00,2.11414062e+03,4.60937500e+00,,-3.55216000e-06,1.67448586e-03
-3.55056000e-06,-4.11093750e+00,2.11781250e+03,3.37500000e+00,,-3.55056000e-06,1.68799981e-03
-3.54896000e-06,-4.05781250e+00,2.11421875e+03,5.78125000e+00,,-3.54896000e-06,1.70349621e-03
-3.54736000e-06,-4.06562500e+00,2.11054688e+03,4.73437500e+00,,-3.54736000e-06,1.72126817e-03
-3.54576000e-06,-3.95468750e+00,2.11585938e+03,3.48437500e+00,,-3.54576000e-06,1.73515978e-03
-3.54416000e-06,-4.03906250e+00,2.10984375e+03,5.92187500e+00,,-3.54416000e-06,1.75105315e-03
-3.54256000e-06,-3.96250000e+00,2.10953125e+03,4.42187500e+00,,-3.54256000e-06,1.76851102e-03
-3.54096000e-06,-3.97656250e+00,2.10929688e+03,3.45312500e+00,,-3.54096000e-06,1.78180041e-03
-3.53936000e-06,-4.10468750e+00,2.11117188e+03,6.35937500e+00,,-3.53936000e-06,1.79836794e-03
-3.53776000e-06,-3.92343750e+00,2.10921875e+03,5.01562500e+00,,-3.53776000e-06,1.81757181e-03
-3.53616000e-06,-3.97187500e+00,2.10976562e+03,5.04687500e+00,,-3.53616000e-06,1.83455320e-03
-3.53456000e-06,-4.05000000e+00,2.11562500e+03,6.20312500e+00,,-3.53456000e-06,1.85357023e-03
-3.53296000e-06,-3.92187500e+00,2.10804688e+03,5.70312500e+00,,-3.53296000e-06,1.87368703e-03
-3.53136000e-06,-4.04375000e+00,2.11484375e+03,4.46875000e+00,,-3.53136000e-06,1.89086550e-03
-3.52976000e-06,-4.11718750e+00,2.11187500e+03,5.28125000e+00,,-3.52976000e-06,1.90734875e-03
-3.52816000e-06,-3.95468750e+00,2.10796875e+03,6.18750000e+00,,-3.52816000e-06,1.92670582e-03
-3.52656000e-06,-4.03281250e+00,2.11289062e+03,5.26562500e+00,,-3.52656000e-06,1.94604078e-03
-3.52496000e-06,-4.02968750e+00,2.11460938e+03,4.53125000e+00,,-3.52496000e-06,1.96260680e-03
-3.52336000e-06,-3.91562500e+00,2.11046875e+03,6.93750000e+00,,-3.52336000e-06,1.98198529e-03
-3.52176000e-06,-4.01718750e+00,2.11500000e+03,4.92187500e+00,,-3.52176000e-06,2.00202619e-03
-3.52016000e-06,-4.00000000e+00,2.11203125e+03,4.26562500e+00,,-3.52016000e-06,2.01756135e-03
-3.51856000e-06,-3.94218750e+00,2.11523438e+03,6.95312500e+00,,-3.51856000e-06,2.03653472e-03
-3.51696000e-06,-3.97812500e+00,2.11367188e+03,5.34375000e+00,,-3.51696000e-06,2.05733674e-03
-3.51536000e-06,-3.91406250e+00,2.11328125e+03,4.34375000e+00,,-3.51536000e-06,2.07371637e-03
-3.51376000e-06,-4.02656250e+00,2.11507812e+03,6.79687500e+00,,-3.51376000e-06,2.09256075e-03
-3.51216000e-06,-3.93906250e+00,2.11312500e+03,4.89062500e+00,,-3.51216000e-06,2.11232901e-03
-3.51056000e-06,-3.91562500e+00,2.11484375e+03,5.53125000e+00,,-3.51056000e-06,2.12995475e-03
-3.50896000e-06,-4.03593750e+00,2.11820312e+03,5.78125000e+00,,-3.50896000e-06,2.14910973e-03
-3.50736000e-06,-3.82812500e+00,2.11000000e+03,5.79687500e+00,,-3.50736000e-06,2.16869148e-03
-3.50576000e-06,-3.96875000e+00,2.11335938e+03,4.96875000e+00,,-3.50576000e-06,2.18687719e-03
-3.50416000e-06,-4.03125000e+00,2.12007812e+03,4.81250000e+00,,-3.50416000e-06,2.20344006e-03
-3.50256000e-06,-3.92500000e+00,2.11156250e+03,5.71875000e+00,,-3.50256000e-06,2.22126278e-03
-3.50096000e-06,-4.00468750e+00,2.11757812e+03,5.64062500e+00,,-3.50096000e-06,2.24047876e-03
-3.49936000e-06,-3.94687500e+00,2.11804688e+03,4.48437500e+00,,-3.49936000e-06,2.25763279e-03
-3.49776000e-06,-3.88281250e+00,2.11109375e+03,6.62500000e+00,,-3.49776000e-06,2.27642013e-03
-3.49616000e-06,-4.03750000e+00,2.11203125e+03,5.39062500e+00,,-3.49616000e-06,2.29671714e-03
-3.49456000e-06,-3.96875000e+00,2.11523438e+03,4.75000000e+00,,-3.49456000e-06,2.31386325e-03
-3.49296000e-06,-3.90937500e+00,2.11265625e+03,5.85937500e+00,,-3.49296000e-06,2.33180425e-03
-3.49136000e-06,-3.94687500e+00,2.11070312e+03,6.09375000e+00,,-3.49136000e-06,2.35199695e-03
-3.48976000e-06,-4.05156250e+00,2.11554688e+03,5.14062500e+00,,-3.48976000e-06,2.37098685e-03
-3.48816000e-06,-4.12500000e+00,2.11984375e+03,6.40625000e+00,,-3.48816000e-06,2.39055115e-03
-3.48656000e-06,-3.95156250e+00,2.11445312e+03,5.73437500e+00,,-3.48656000e-06,2.41111545e-03
-3.48496000e-06,-4.01406250e+00,2.11507812e+03,5.23437500e+00,,-3.48496000e-06,2.42967228e-03
-3.48336000e-06,-3.98593750e+00,2.11421875e+03,6.04687500e+00,,-3.48336000e-06,2.44875671e-03
-3.48176000e-06,-3.86093750e+00,2.11335938e+03,6.06250000e+00,,-3.48176000e-06,2.46923394e-03
-3.48016000e-06,-4.03125000e+00,2.11671875e+03,5.96875000e+00,,-3.48016000e-06,2.48959102e-03
-3.47856000e-06,-4.11718750e+00,2.11812500e+03,4.85937500e+00,,-3.47856000e-06,2.50793248e-03
-3.47696000e-06,-3.96406250e+00,2.11007812e+03,6.20312500e+00,,-3.47696000e-06,2.52663787e-03
-3.47536000e-06,-4.09843750e+00,2.11609375e+03,5.21875000e+00,,-3.47536000e-06,2.54594372e-03
-3.47376000e-06,-4.06093750e+00,2.12046875e+03,4.87500000e+00,,-3.47376000e-06,2.56304815e-03
-3.47216000e-06,-3.94375000e+00,2.11523438e+03,6.21875000e+00,,-3.47216000e-06,2.58184131e-03
-3.47056000e-06,-4.07812500e+00,2.11648438e+03,4.81250000e+00,,-3.47056000e-06,2.60051317e-03
-3.46896000e-06,-4.00625000e+00,2.11507812e+03,4.28125000e+00,,-3.46896000e-06,2.61590583e-03
-3.46736000e-06,-4.05000000e+00,2.11132812e+03,5.59375000e+00,,-3.46736000e-06,2.63259816e-03
-3.46576000e-06,-4.05000000e+00,2.11390625e+03,4.32812500e+00,,-3.46576000e-06,2.64936569e-03
-3.46416000e-06,-4.05000000e+00,2.11414062e+03,2.98437500e+00,,-3.46416000e-06,2.66173249e-03
-3.46256000e-06,-4.00312500e+00,2.11484375e+03,6.14062500e+00,,-3.46256000e-06,2.67716916e-03
-3.46096000e-06,-3.87812500e+00,2.11335938e+03,4.60937500e+00,,-3.46096000e-06,2.69535137e-03
-3.45936000e-06,-3.97656250e+00,2.11539062e+03,3.67187500e+00,,-3.45936000e-06,2.70935823e-03
-3.45776000e-06,-3.97500000e+00,2.11726562e+03,4.64062500e+00,,-3.45776000e-06,2.72343261e-03
-3.45616000e-06,-3.84218750e+00,2.11070312e+03,3.98437500e+00,,-3.45616000e-06,2.73802085e-03
-3.45456000e-06,-4.04843750e+00,2.11671875e+03,4.53125000e+00,,-3.45456000e-06,2.75242189e-03
-3.45296000e-06,-4.07500000e+00,2.11695312e+03,4.45312500e+00,,-3.45296000e-06,2.76763667e-03
-3.45136000e-06,-3.98281250e+00,2.11093750e+03,5.45312500e+00,,-3.45136000e-06,2.78438721e-03
-3.44976000e-06,-4.00781250e+00,2.11609375e+03,3.96875000e+00,,-3.44976000e-06,2.80031469e-03
-3.44816000e-06,-4.00156250e+00,2.11851562e+03,3.53125000e+00,,-3.44816000e-06,2.81301816e-03
-3.44656000e-06,-3.90937500e+00,2.11554688e+03,5.23437500e+00,,-3.44656000e-06,2.82786181e-03
-3.44496000e-06,-3.99062500e+00,2.11539062e+03,3.79687500e+00,,-3.44496000e-06,2.84314621e-03
-3.44336000e-06,-4.00000000e+00,2.11820312e+03,3.20312500e+00,,-3.44336000e-06,2.85499962e-03
-3.44176000e-06,-4.00312500e+00,2.11406250e+03,4.82812500e+00,,-3.44176000e-06,2.86859297e-03
-3.44016000e-06,-3.88437500e+00,2.11187500e+03,4.60937500e+00,,-3.44016000e-06,2.88454606e-03
-3.43856000e-06,-4.03906250e+00,2.11273438e+03,3.43750000e+00,,-3.43856000e-06,2.89814360e-03
-3.43696000e-06,-4.00156250e+00,2.11640625e+03,5.40625000e+00,,-3.43696000e-06,2.91310716e-03
-3.43536000e-06,-3.89843750e+00,2.11289062e+03,4.06250000e+00,,-3.43536000e-06,2.92912754e-03
-3.43376000e-06,-3.95000000e+00,2.11601562e+03,3.76562500e+00,,-3.43376000e-06,2.94236885e-03
-3.43216000e-06,-4.05000000e+00,2.11937500e+03,4.15625000e+00,,-3.43216000e-06,2.95579038e-03
-3.43056000e-06,-4.03125000e+00,2.11039062e+03,3.90625000e+00,,-3.43056000e-06,2.96943216e-03
-3.42896000e-06,-4.01250000e+00,2.11554688e+03,4.34375000e+00,,-3.42896000e-06,2.98337871e-03
-3.42736000e-06,-4.08281250e+00,2.11632812e+03,4.31250000e+00,,-3.42736000e-06,2.99803168e-03
-3.42576000e-06,-3.87656250e+00,2.11054688e+03,5.29687500e+00,,-3.42576000e-06,3.01427650e-03
-3.42416000e-06,-4.00312500e+00,2.11742188e+03,4.54687500e+00,,-3.42416000e-06,3.03092203e-03
-3.42256000e-06,-4.10781250e+00,2.11968750e+03,3.73437500e+00,,-3.42256000e-06,3.04495683e-03
-3.42096000e-06,-3.94062500e+00,2.11171875e+03,6.57812500e+00,,-3.42096000e-06,3.06240236e-03
-3.41936000e-06,-4.04218750e+00,2.11132812e+03,3.87500000e+00,,-3.41936000e-06,3.08006047e-03
-3.41776000e-06,-4.02500000e+00,2.11398438e+03,3.53125000e+00,,-3.41776000e-06,3.09257768e-03
-3.41616000e-06,-3.97187500e+00,2.11164062e+03,6.48437500e+00,,-3.41616000e-06,3.10950377e-03
-3.41456000e-06,-3.95156250e+00,2.11281250e+03,4.51562500e+00,,-3.41456000e-06,3.12809041e-03
-3.41296000e-06,-4.06718750e+00,2.11710938e+03,4.14062500e+00,,-3.41296000e-06,3.14273592e-03
-3.41136000e-06,-4.06250000e+00,2.11890625e+03,5.29687500e+00,,-3.41136000e-06,3.15872766e-03
-3.40976000e-06,-3.88125000e+00,2.11382812e+03,4.73437500e+00,,-3.40976000e-06,3.17571266e-03
-3.40816000e-06,-4.10468750e+00,2.11078125e+03,4.85937500e+00,,-3.40816000e-06,3.19192442e-03
-3.40656000e-06,-4.02656250e+00,2.12054688e+03,5.87500000e+00,,-3.40656000e-06,3.21009662e-03
-3.40496000e-06,-3.91562500e+00,2.11437500e+03,5.34375000e+00,,-3.40496000e-06,3.22910212e-03
-3.40336000e-06,-4.02031250e+00,2.11609375e+03,5.04687500e+00,,-3.40336000e-06,3.24668479e-03
-3.40176000e-06,-4.03281250e+00,2.11531250e+03,5.09375000e+00,,-3.40176000e-06,3.26384837e-03
-3.40016000e-06,-3.97968750e+00,2.10976562e+03,5.95312500e+00,,-3.40016000e-06,3.28251603e-03
-3.39856000e-06,-4.00468750e+00,2.11054688e+03,4.31250000e+00,,-3.39856000e-06,3.29984515e-03
-3.39696000e-06,-4.07656250e+00,2.11171875e+03,4.03125000e+00,,-3.39696000e-06,3.31393676e-03
-3.39536000e-06,-3.97500000e+00,2.10921875e+03,6.70312500e+00,,-3.39536000e-06,3.33205773e-03
