电流数据/SC1_ALL(1).csv

Model,MSO58
Channel,CH1,,Channel,CH2,,Channel,CH3,,Channel,CH4,,Channel,MATH1
Waveform Type,ANALOG,,Waveform Type,ANALOG,,Waveform Type,ANALOG,,Waveform Type,ANALOG,,Waveform Type,ANALOG
Horizontal Units,s,,Horizontal Units,s,,Horizontal Units,s,,Horizontal Units,s,,Horizontal Units,s
Sample Interval,1.60000000e-09,,Sample Interval,1.60000000e-09,,Sample Interval,1.60000000e-09,,Sample Interval,1.60000000e-09,,Sample Interval,1.60000000e-09
Record Length,6250,,Record Length,6250,,Record Length,6250,,Record Length,6250,,Record Length,6250
Zero Index,1424.70000000,,Zero Index,1424.70000000,,Zero Index,1424.70000000,,Zero Index,1424.70000000,,Zero Index,1424.70000000
Vertical Units,V,,Vertical Units,V,,Vertical Units,A,,Vertical Units,A,,Vertical Units,J
,,,,,,,,,,,,,
ANALOG_Thumbnail,,,ANALOG_Thumbnail,,,ANALOG_Thumbnail,,,ANALOG_Thumbnail,,,,
yOffset,0.000000,,yOffset,0.000000,,yOffset,0.000000,,yOffset,0.000000,,,
yPosition,0.120000,,yPosition,-1.600000,,yPosition,0.000000,,yPosition,0.000000,,,

TIME,CH1,CH2,CH3,CH4,,TIME,MATH1
-2.27952000e-06,-1.00312500e+01,7.92578125e+02,-1.04687500e+00,3.51562500e-01,,-2.27952000e-06,-1.32756838e-06
-2.27792000e-06,-9.98437500e+00,7.94062500e+02,-8.75000000e-01,8.67187500e-01,,-2.27792000e-06,-2.54719635e-06
-2.27632000e-06,-1.00031250e+01,7.93750000e+02,-1.32812500e+00,7.03125000e-01,,-2.27632000e-06,-3.94639937e-06
-2.27472000e-06,-1.00000000e+01,7.89453125e+02,-7.57812500e-01,6.32812500e-01,,-2.27472000e-06,-5.26836493e-06
-2.27312000e-06,-1.00781250e+01,7.91640625e+02,-7.10937500e-01,6.40625000e-01,,-2.27312000e-06,-6.19721641e-06
-2.27152000e-06,-9.94687500e+00,7.94062500e+02,-1.38281250e+00,8.28125000e-01,,-2.27152000e-06,-7.52589358e-06
-2.26992000e-06,-1.00578125e+01,7.91718750e+02,-9.21875000e-01,7.10937500e-01,,-2.26992000e-06,-8.98821781e-06
-2.26832000e-06,-1.00046875e+01,7.91796875e+02,-6.87500000e-01,8.28125000e-01,,-2.26832000e-06,-1.00075986e-05
-2.26672000e-06,-9.99531250e+00,7.95703125e+02,-1.10156250e+00,7.10937500e-01,,-2.26672000e-06,-1.11443005e-05
-2.26512000e-06,-1.00062500e+01,7.88359375e+02,-8.35937500e-01,1.07031250e+00,,-2.26512000e-06,-1.23727295e-05
-2.26352000e-06,-1.00000000e+01,7.88437500e+02,-8.35937500e-01,9.45312500e-01,,-2.26352000e-06,-1.34272123e-05
-2.26192000e-06,-1.00500000e+01,7.92421875e+02,-9.84375000e-01,7.96875000e-01,,-2.26192000e-06,-1.45785125e-05
-2.26032000e-06,-1.00609375e+01,7.92890625e+02,-5.31250000e-01,8.75000000e-01,,-2.26032000e-06,-1.55395228e-05
-2.25872000e-06,-1.00562500e+01,7.95312500e+02,-7.81250000e-01,9.37500000e-01,,-2.25872000e-06,-1.63735713e-05
-2.25712000e-06,-1.00328125e+01,7.93203125e+02,-6.71875000e-01,6.71875000e-01,,-2.25712000e-06,-1.72969885e-05
-2.25552000e-06,-1.00703125e+01,7.96640625e+02,-8.35937500e-01,1.25000000e+00,,-2.25552000e-06,-1.82560889e-05
-2.25392000e-06,-1.00578125e+01,7.91406250e+02,-6.25000000e-01,7.73437500e-01,,-2.25392000e-06,-1.91845447e-05
-2.25232000e-06,-9.98750000e+00,7.89531250e+02,-9.84375000e-01,7.57812500e-01,,-2.25232000e-06,-2.02020037e-05
-2.25072000e-06,-1.01140625e+01,7.94140625e+02,-6.48437500e-01,1.03906250e+00,,-2.25072000e-06,-2.12357209e-05
-2.24912000e-06,-1.00656250e+01,7.89062500e+02,-1.06250000e+00,7.96875000e-01,,-2.24912000e-06,-2.23183852e-05
-2.24752000e-06,-1.00484375e+01,7.87968750e+02,-9.29687500e-01,7.89062500e-01,,-2.24752000e-06,-2.35751395e-05
-2.24592000e-06,-1.00031250e+01,7.94375000e+02,-1.12500000e+00,7.42187500e-01,,-2.24592000e-06,-2.48761280e-05
-2.24432000e-06,-1.00125000e+01,7.91562500e+02,-6.01562500e-01,1.45312500e+00,,-2.24432000e-06,-2.59720055e-05
-2.24272000e-06,-1.00640625e+01,7.89062500e+02,-7.42187500e-01,1.43750000e+00,,-2.24272000e-06,-2.68214499e-05
-2.24112000e-06,-1.01000000e+01,7.89843750e+02,-7.57812500e-01,5.23437500e-01,,-2.24112000e-06,-2.77687977e-05
-2.23952000e-06,-1.00453125e+01,7.91093750e+02,-9.21875000e-01,9.76562500e-01,,-2.23952000e-06,-2.88310730e-05
-2.23792000e-06,-9.98437500e+00,7.92734375e+02,-7.18750000e-01,9.84375000e-01,,-2.23792000e-06,-2.98703271e-05
-2.23632000e-06,-1.00031250e+01,7.87968750e+02,-9.21875000e-01,9.29687500e-01,,-2.23632000e-06,-3.09072748e-05
-2.23472000e-06,-1.00812500e+01,7.90390625e+02,-4.37500000e-01,7.81250000e-01,,-2.23472000e-06,-3.17650374e-05
-2.23312000e-06,-9.98593750e+00,7.88515625e+02,-8.90625000e-01,9.60937500e-01,,-2.23312000e-06,-3.26034933e-05
-2.23152000e-06,-9.95937500e+00,7.89453125e+02,-5.62500000e-01,8.35937500e-01,,-2.23152000e-06,-3.35205659e-05
-2.22992000e-06,-1.00687500e+01,7.91093750e+02,-7.89062500e-01,7.34375000e-01,,-2.22992000e-06,-3.43751963e-05
-2.22832000e-06,-9.97656250e+00,7.90156250e+02,-5.15625000e-01,8.67187500e-01,,-2.22832000e-06,-3.52005154e-05
-2.22672000e-06,-1.00750000e+01,7.89296875e+02,-7.18750000e-01,7.57812500e-01,,-2.22672000e-06,-3.59803016e-05
-2.22512000e-06,-1.00593750e+01,7.91640625e+02,-8.04687500e-01,1.02343750e+00,,-2.22512000e-06,-3.69437657e-05
-2.22352000e-06,-1.00312500e+01,7.90625000e+02,-3.90625000e-01,8.04687500e-01,,-2.22352000e-06,-3.77004544e-05
-2.22192000e-06,-1.01890625e+01,7.88671875e+02,-2.50000000e-01,8.43750000e-01,,-2.22192000e-06,-3.81052596e-05
-2.22032000e-06,-1.00687500e+01,7.92812500e+02,-8.35937500e-01,3.35937500e-01,,-2.22032000e-06,-3.87931868e-05
-2.21872000e-06,-1.00515625e+01,7.89218750e+02,-6.17187500e-01,6.56250000e-01,,-2.21872000e-06,-3.97130570e-05
-2.21712000e-06,-1.00406250e+01,7.89687500e+02,-6.09375000e-01,8.12500000e-01,,-2.21712000e-06,-4.04877064e-05
-2.21552000e-06,-9.95625000e+00,7.92421875e+02,-1.26562500e+00,1.10156250e+00,,-2.21552000e-06,-4.16750045e-05
-2.21392000e-06,-9.99531250e+00,7.90703125e+02,-8.51562500e-01,9.53125000e-01,,-2.21392000e-06,-4.30159998e-05
-2.21232000e-06,-1.00656250e+01,7.87656250e+02,-4.21875000e-01,8.12500000e-01,,-2.21232000e-06,-4.38204988e-05
-2.21072000e-06,-1.00046875e+01,7.91328125e+02,-5.78125000e-01,8.35937500e-01,,-2.21072000e-06,-4.44523212e-05
-2.20912000e-06,-1.00015625e+01,7.89218750e+02,-1.32812500e-01,9.21875000e-01,,-2.20912000e-06,-4.49021645e-05
-2.20752000e-06,-1.00718750e+01,7.94218750e+02,-7.57812500e-01,8.35937500e-01,,-2.20752000e-06,-4.54675137e-05
-2.20592000e-06,-9.97812500e+00,7.90781250e+02,-6.40625000e-01,6.40625000e-01,,-2.20592000e-06,-4.63542856e-05
-2.20432000e-06,-1.00906250e+01,7.94453125e+02,-6.40625000e-01,7.65625000e-01,,-2.20432000e-06,-4.71667190e-05
-2.20272000e-06,-1.00718750e+01,7.92656250e+02,-5.78125000e-01,6.32812500e-01,,-2.20272000e-06,-4.79404807e-05
-2.20112000e-06,-1.00187500e+01,7.92890625e+02,-7.03125000e-01,8.43750000e-01,,-2.20112000e-06,-4.87530851e-05
-2.19952000e-06,-1.00406250e+01,7.90859375e+02,-6.40625000e-01,1.02343750e+00,,-2.19952000e-06,-4.96044013e-05
-2.19792000e-06,-1.00296875e+01,7.91484375e+02,-7.26562500e-01,3.51562500e-01,,-2.19792000e-06,-5.04697673e-05
-2.19632000e-06,-1.00078125e+01,7.86640625e+02,-4.84375000e-01,5.46875000e-01,,-2.19632000e-06,-5.12346414e-05
-2.19472000e-06,-9.97187500e+00,7.89062500e+02,-1.32031250e+00,7.96875000e-01,,-2.19472000e-06,-5.23729104e-05
-2.19312000e-06,-9.97343750e+00,7.89843750e+02,-6.32812500e-01,7.65625000e-01,,-2.19312000e-06,-5.36062144e-05
-2.19152000e-06,-1.00500000e+01,7.89062500e+02,-4.76562500e-01,5.46875000e-01,,-2.19152000e-06,-5.43069036e-05
-2.18992000e-06,-1.00750000e+01,7.92500000e+02,-8.75000000e-01,3.98437500e-01,,-2.18992000e-06,-5.51624835e-05
-2.18832000e-06,-1.00890625e+01,7.92812500e+02,-7.10937500e-01,8.04687500e-01,,-2.18832000e-06,-5.61681445e-05
-2.18672000e-06,-1.00906250e+01,7.95390625e+02,-4.21875000e-01,6.09375000e-01,,-2.18672000e-06,-5.68875003e-05
-2.18512000e-06,-1.00515625e+01,7.90781250e+02,-1.06250000e+00,3.90625000e-01,,-2.18512000e-06,-5.78281069e-05
-2.18352000e-06,-1.00812500e+01,7.88046875e+02,-8.98437500e-01,7.65625000e-01,,-2.18352000e-06,-5.90666787e-05
-2.18192000e-06,-1.00343750e+01,7.91250000e+02,-9.68750000e-01,6.56250000e-01,,-2.18192000e-06,-6.02463078e-05
-2.18032000e-06,-1.00031250e+01,7.94140625e+02,-1.05468750e+00,3.35937500e-01,,-2.18032000e-06,-6.15295794e-05
-2.17872000e-06,-1.00671875e+01,7.90468750e+02,-1.04687500e+00,1.10156250e+00,,-2.17872000e-06,-6.28616544e-05
-2.17712000e-06,-1.00328125e+01,7.91562500e+02,-7.81250000e-01,8.28125000e-01,,-2.17712000e-06,-6.40184007e-05
-2.17552000e-06,-1.00296875e+01,7.91484375e+02,-8.90625000e-01,2.34375000e-02,,-2.17552000e-06,-6.50770598e-05
-2.17392000e-06,-1.01000000e+01,7.89765625e+02,-9.76562500e-01,7.26562500e-01,,-2.17392000e-06,-6.62579987e-05
-2.17232000e-06,-1.01296875e+01,7.91328125e+02,-5.93750000e-01,8.90625000e-01,,-2.17232000e-06,-6.72508831e-05
-2.17072000e-06,-1.00781250e+01,7.91406250e+02,-5.07812500e-01,6.01562500e-01,,-2.17072000e-06,-6.79482764e-05
-2.16912000e-06,-1.00093750e+01,7.96250000e+02,-9.92187500e-01,6.32812500e-01,,-2.16912000e-06,-6.89018052e-05
-2.16752000e-06,-1.01250000e+01,7.93437500e+02,-5.78125000e-01,9.37500000e-01,,-2.16752000e-06,-6.99007942e-05
-2.16592000e-06,-1.01390625e+01,7.91562500e+02,-5.15625000e-01,7.89062500e-01,,-2.16592000e-06,-7.05942803e-05
-2.16432000e-06,-1.00750000e+01,7.92890625e+02,-8.51562500e-01,1.02343750e+00,,-2.16432000e-06,-7.14609560e-05
-2.16272000e-06,-1.00343750e+01,7.89843750e+02,-6.95312500e-01,9.06250000e-01,,-2.16272000e-06,-7.24404599e-05
-2.16112000e-06,-1.01312500e+01,7.91562500e+02,-5.00000000e-01,1.10156250e+00,,-2.16112000e-06,-7.31964319e-05
-2.15952000e-06,-1.00640625e+01,7.93359375e+02,-6.95312500e-01,5.31250000e-01,,-2.15952000e-06,-7.39543611e-05
-2.15792000e-06,-1.00765625e+01,7.92109375e+02,-7.57812500e-01,1.14062500e+00,,-2.15792000e-06,-7.48758830e-05
-2.15632000e-06,-1.00359375e+01,7.90781250e+02,-5.85937500e-01,9.21875000e-01,,-2.15632000e-06,-7.57267771e-05
-2.15472000e-06,-1.00515625e+01,7.95156250e+02,-8.28125000e-01,6.32812500e-01,,-2.15472000e-06,-7.66242447e-05
-2.15312000e-06,-1.00531250e+01,7.90703125e+02,-7.42187500e-01,1.39062500e+00,,-2.15312000e-06,-7.76205125e-05
-2.15152000e-06,-1.00484375e+01,7.92890625e+02,-7.81250000e-01,4.60937500e-01,,-2.15152000e-06,-7.85855518e-05
-2.14992000e-06,-1.00343750e+01,7.90312500e+02,-1.01562500e+00,6.87500000e-01,,-2.14992000e-06,-7.97232351e-05
-2.14832000e-06,-9.96406250e+00,7.95859375e+02,-8.75000000e-01,7.57812500e-01,,-2.14832000e-06,-8.09224657e-05
-2.14672000e-06,-1.00312500e+01,7.92812500e+02,-9.06250000e-01,7.65625000e-01,,-2.14672000e-06,-8.20543573e-05
-2.14512000e-06,-1.00312500e+01,7.89531250e+02,-8.59375000e-01,1.02343750e+00,,-2.14512000e-06,-8.31719517e-05
-2.14352000e-06,-1.01046875e+01,7.97265625e+02,-1.42187500e+00,8.35937500e-01,,-2.14352000e-06,-8.46216426e-05
-2.14192000e-06,-1.01390625e+01,7.94531250e+02,-8.20312500e-01,9.60937500e-01,,-2.14192000e-06,-8.60499422e-05
-2.14032000e-06,-1.00875000e+01,7.91718750e+02,-7.73437500e-01,1.14843750e+00,,-2.14032000e-06,-8.70612275e-05
-2.13872000e-06,-1.01093750e+01,7.97265625e+02,-8.35937500e-01,1.07812500e+00,,-2.13872000e-06,-8.80842781e-05
-2.13712000e-06,-1.00500000e+01,7.91718750e+02,-6.71875000e-01,1.08593750e+00,,-2.13712000e-06,-8.90430019e-05
-2.13552000e-06,-1.00812500e+01,7.88750000e+02,-8.67187500e-01,8.35937500e-01,,-2.13552000e-06,-9.00157465e-05
-2.13392000e-06,-1.00843750e+01,7.92109375e+02,-6.32812500e-01,5.39062500e-01,,-2.13392000e-06,-9.09639493e-05
-2.13232000e-06,-1.00765625e+01,7.89687500e+02,-8.98437500e-01,9.53125000e-01,,-2.13232000e-06,-9.19325394e-05
-2.13072000e-06,-1.00562500e+01,7.90312500e+02,-7.73437500e-01,8.35937500e-01,,-2.13072000e-06,-9.29891321e-05
-2.12912000e-06,-1.00453125e+01,7.92500000e+02,-1.00000000e+00,5.39062500e-01,,-2.12912000e-06,-9.41121398e-05
-2.12752000e-06,-1.00437500e+01,7.87265625e+02,-1.07812500e+00,1.07812500e+00,,-2.12752000e-06,-9.54251591e-05
-2.12592000e-06,-1.00921875e+01,7.90000000e+02,-1.14062500e+00,9.92187500e-01,,-2.12592000e-06,-9.68250533e-05
-2.12432000e-06,-1.00156250e+01,7.88593750e+02,-2.89062500e-01,6.87500000e-01,,-2.12432000e-06,-9.77282907e-05
-2.12272000e-06,-1.00593750e+01,7.92109375e+02,-4.92187500e-01,1.05468750e+00,,-2.12272000e-06,-9.82225465e-05
-2.12112000e-06,-1.00906250e+01,7.89531250e+02,-7.26562500e-01,8.59375000e-01,,-2.12112000e-06,-9.89933542e-05
-2.11952000e-06,-1.00406250e+01,7.88203125e+02,-5.07812500e-01,9.21875000e-01,,-2.11952000e-06,-9.97724783e-05
-2.11792000e-06,-1.01250000e+01,7.87812500e+02,-7.89062500e-01,1.54687500e+00,,-2.11792000e-06,-1.00589990e-04
-2.11632000e-06,-1.01406250e+01,7.90234375e+02,-4.21875000e-01,1.07812500e+00,,-2.11632000e-06,-1.01354002e-04
-2.11472000e-06,-9.99843750e+00,7.91953125e+02,-4.21875000e-01,1.56250000e+00,,-2.11472000e-06,-1.01887992e-04
-2.11312000e-06,-1.00437500e+01,7.93906250e+02,-4.45312500e-01,9.14062500e-01,,-2.11312000e-06,-1.02438105e-04
-2.11152000e-06,-1.00968750e+01,7.89609375e+02,-5.15625000e-01,8.67187500e-01,,-2.11152000e-06,-1.03046652e-04
-2.10992000e-06,-1.00328125e+01,7.91015625e+02,-3.59375000e-01,8.59375000e-01,,-2.10992000e-06,-1.03599785e-04
-2.10832000e-06,-1.00484375e+01,7.98125000e+02,-2.81250000e-01,7.89062500e-01,,-2.10832000e-06,-1.04006780e-04
-2.10672000e-06,-1.00656250e+01,7.93281250e+02,-5.23437500e-01,1.18750000e+00,,-2.10672000e-06,-1.04518542e-04
-2.10512000e-06,-1.00625000e+01,7.96875000e+02,-4.60937500e-01,1.34375000e+00,,-2.10512000e-06,-1.05144572e-04
-2.10352000e-06,-1.00031250e+01,7.94296875e+02,-2.89062500e-01,8.98437500e-01,,-2.10352000e-06,-1.05622101e-04
-2.10192000e-06,-1.00984375e+01,7.93906250e+02,-7.89062500e-01,1.16406250e+00,,-2.10192000e-06,-1.06306936e-04
-2.10032000e-06,-1.00750000e+01,7.92968750e+02,-6.64062500e-01,1.14062500e+00,,-2.10032000e-06,-1.07229353e-04
-2.09872000e-06,-1.00953125e+01,7.96171875e+02,-7.81250000e-01,1.07031250e+00,,-2.09872000e-06,-1.08148226e-04
-2.09712000e-06,-1.00890625e+01,7.92343750e+02,-9.21875000e-01,1.50000000e+00,,-2.09712000e-06,-1.09230190e-04
-2.09552000e-06,-1.00218750e+01,7.89531250e+02,-3.20312500e-01,1.41406250e+00,,-2.09552000e-06,-1.10016859e-04
-2.09392000e-06,-1.00953125e+01,7.91640625e+02,-5.62500000e-01,9.92187500e-01,,-2.09392000e-06,-1.10575413e-04
-2.09232000e-06,-1.00343750e+01,7.90781250e+02,-8.90625000e-01,8.43750000e-01,,-2.09232000e-06,-1.11495079e-04
-2.09072000e-06,-1.01281250e+01,7.91796875e+02,-8.43750000e-01,8.67187500e-01,,-2.09072000e-06,-1.12592970e-04
-2.08912000e-06,-1.00656250e+01,7.92812500e+02,-7.34375000e-01,6.79687500e-01,,-2.08912000e-06,-1.13593211e-04
-2.08752000e-06,-1.00109375e+01,7.94062500e+02,-1.25000000e+00,8.28125000e-01,,-2.08752000e-06,-1.14853050e-04
-2.08592000e-06,-1.00375000e+01,7.90390625e+02,-1.20312500e+00,1.40625000e+00,,-2.08592000e-06,-1.16407864e-04
-2.08432000e-06,-1.00656250e+01,7.91484375e+02,-8.51562500e-01,1.24218750e+00,,-2.08432000e-06,-1.17707816e-04
-2.08272000e-06,-9.99062500e+00,7.91953125e+02,-9.68750000e-01,3.98437500e-01,,-2.08272000e-06,-1.18860778e-04
-2.08112000e-06,-9.99687500e+00,7.94921875e+02,-6.79687500e-01,1.10156250e+00,,-2.08112000e-06,-1.19906777e-04
-2.07952000e-06,-1.01312500e+01,7.92656250e+02,-9.53125000e-01,3.12500000e-01,,-2.07952000e-06,-1.20943419e-04
-2.07792000e-06,-1.00000000e+01,7.94375000e+02,-9.92187500e-01,6.48437500e-01,,-2.07792000e-06,-1.22178360e-04
-2.07632000e-06,-1.00343750e+01,7.90625000e+02,-8.35937500e-01,1.02343750e+00,,-2.07632000e-06,-1.23337624e-04
-2.07472000e-06,-1.01093750e+01,7.91484375e+02,-9.14062500e-01,6.32812500e-01,,-2.07472000e-06,-1.24445127e-04
-2.07312000e-06,-1.00625000e+01,7.90781250e+02,-5.00000000e-01,5.15625000e-01,,-2.07312000e-06,-1.25340215e-04
-2.07152000e-06,-1.00546875e+01,7.85859375e+02,-9.60937500e-01,7.34375000e-01,,-2.07152000e-06,-1.26260653e-04
-2.06992000e-06,-1.00750000e+01,7.88359375e+02,-5.78125000e-01,7.81250000e-01,,-2.06992000e-06,-1.27229403e-04
-2.06832000e-06,-1.00890625e+01,7.88671875e+02,-6.32812500e-01,6.25000000e-01,,-2.06832000e-06,-1.27993291e-04
-2.06672000e-06,-1.00578125e+01,7.91484375e+02,-1.10937500e+00,1.07812500e+00,,-2.06672000e-06,-1.29095002e-04
-2.06512000e-06,-1.01328125e+01,7.91796875e+02,-9.45312500e-01,1.00781250e+00,,-2.06512000e-06,-1.30396234e-04
-2.06352000e-06,-1.01687500e+01,7.92421875e+02,-8.59375000e-01,8.90625000e-01,,-2.06352000e-06,-1.31539826e-04
-2.06192000e-06,-1.00656250e+01,7.92578125e+02,-1.18750000e+00,2.18750000e-01,,-2.06192000e-06,-1.32837566e-04
-2.06032000e-06,-1.01140625e+01,7.95703125e+02,-7.65625000e-01,1.01562500e+00,,-2.06032000e-06,-1.34077884e-04
-2.05872000e-06,-1.00609375e+01,7.96093750e+02,-8.43750000e-01,8.20312500e-01,,-2.05872000e-06,-1.35102615e-04
-2.05712000e-06,-1.01265625e+01,7.92890625e+02,-1.14062500e+00,8.12500000e-01,,-2.05712000e-06,-1.36363495e-04
-2.05552000e-06,-1.00765625e+01,7.88750000e+02,-1.07812500e+00,7.73437500e-01,,-2.05552000e-06,-1.37767303e-04
-2.05392000e-06,-1.01000000e+01,7.92265625e+02,-8.51562500e-01,1.00000000e+00,,-2.05392000e-06,-1.38987336e-04
-2.05232000e-06,-1.00031250e+01,7.91328125e+02,-9.76562500e-01,8.90625000e-01,,-2.05232000e-06,-1.40145290e-04
-2.05072000e-06,-1.00562500e+01,7.91875000e+02,-5.39062500e-01,1.14843750e+00,,-2.05072000e-06,-1.41105018e-04
-2.04912000e-06,-1.00953125e+01,7.91484375e+02,-8.43750000e-01,9.21875000e-01,,-2.04912000e-06,-1.41980767e-04
-2.04752000e-06,-1.00609375e+01,7.90000000e+02,-9.29687500e-01,8.59375000e-01,,-2.04752000e-06,-1.43102588e-04
-2.04592000e-06,-1.00546875e+01,7.91953125e+02,-9.14062500e-01,8.59375000e-01,,-2.04592000e-06,-1.44269274e-04
-2.04432000e-06,-1.00515625e+01,7.95781250e+02,-8.59375000e-01,8.75000000e-01,,-2.04432000e-06,-1.45395490e-04
-2.04272000e-06,-9.95156250e+00,7.92890625e+02,-7.50000000e-01,7.50000000e-01,,-2.04272000e-06,-1.46418330e-04
-2.04112000e-06,-1.00203125e+01,7.96171875e+02,-1.07812500e+00,8.67187500e-01,,-2.04112000e-06,-1.47580766e-04
-2.03952000e-06,-1.00531250e+01,7.92812500e+02,-1.19531250e+00,6.79687500e-01,,-2.03952000e-06,-1.49025596e-04
-2.03792000e-06,-1.01281250e+01,7.93984375e+02,-7.65625000e-01,6.79687500e-01,,-2.03792000e-06,-1.50270032e-04
-2.03632000e-06,-1.00015625e+01,7.93203125e+02,-1.00781250e+00,8.98437500e-01,,-2.03632000e-06,-1.51395870e-04
-2.03472000e-06,-1.01046875e+01,7.92968750e+02,-8.82812500e-01,8.67187500e-01,,-2.03472000e-06,-1.52595429e-04
-2.03312000e-06,-1.00187500e+01,7.95468750e+02,-7.57812500e-01,8.67187500e-01,,-2.03312000e-06,-1.53637709e-04
-2.03152000e-06,-1.00625000e+01,7.95546875e+02,-8.28125000e-01,3.35937500e-01,,-2.03152000e-06,-1.54647016e-04
-2.02992000e-06,-1.01078125e+01,7.92187500e+02,-6.87500000e-01,1.12500000e+00,,-2.02992000e-06,-1.55609770e-04
-2.02832000e-06,-1.01390625e+01,7.93750000e+02,-4.76562500e-01,9.21875000e-01,,-2.02832000e-06,-1.56348091e-04
-2.02672000e-06,-1.00406250e+01,7.90078125e+02,-8.90625000e-01,6.25000000e-01,,-2.02672000e-06,-1.57213639e-04
-2.02512000e-06,-1.00843750e+01,7.91015625e+02,-7.50000000e-01,1.09375000e+00,,-2.02512000e-06,-1.58251176e-04
-2.02352000e-06,-1.00734375e+01,7.91484375e+02,-7.65625000e-01,9.60937500e-01,,-2.02352000e-06,-1.59210569e-04
-2.02192000e-06,-1.00546875e+01,7.93828125e+02,-1.02343750e+00,1.10156250e+00,,-2.02192000e-06,-1.60345298e-04
-2.02032000e-06,-1.00781250e+01,7.92812500e+02,-9.14062500e-01,1.21875000e+00,,-2.02032000e-06,-1.61574993e-04
-2.01872000e-06,-1.00890625e+01,7.94218750e+02,-6.79687500e-01,7.65625000e-01,,-2.01872000e-06,-1.62586599e-04
-2.01712000e-06,-9.97656250e+00,7.88046875e+02,-1.07031250e+00,1.07812500e+00,,-2.01712000e-06,-1.63693214e-04
-2.01552000e-06,-9.97187500e+00,7.94375000e+02,-7.26562500e-01,7.57812500e-01,,-2.01552000e-06,-1.64829704e-04
-2.01392000e-06,-1.00500000e+01,7.90390625e+02,-4.45312500e-01,1.10156250e+00,,-2.01392000e-06,-1.65573016e-04
-2.01232000e-06,-1.01140625e+01,7.86015625e+02,-7.18750000e-01,4.37500000e-01,,-2.01232000e-06,-1.66306549e-04
-2.01072000e-06,-1.00546875e+01,7.93750000e+02,-1.01562500e+00,6.25000000e-01,,-2.01072000e-06,-1.67403428e-04
-2.00912000e-06,-1.00015625e+01,7.90156250e+02,-9.92187500e-01,1.13281250e+00,,-2.00912000e-06,-1.68675542e-04
