电流数据/SC2_ALL.csv

Model,MSO58
Channel,CH1,,Channel,CH2,,Channel,CH3,,Channel,CH4,,Channel,MATH1
Waveform Type,ANALOG,,Waveform Type,ANALOG,,Waveform Type,ANALOG,,Waveform Type,ANALOG,,Waveform Type,ANALOG
Horizontal Units,s,,Horizontal Units,s,,Horizontal Units,s,,Horizontal Units,s,,Horizontal Units,s
Sample Interval,1.60000000e-09,,Sample Interval,1.60000000e-09,,Sample Interval,1.60000000e-09,,Sample Interval,1.60000000e-09,,Sample Interval,1.60000000e-09
Record Length,6250,,Record Length,6250,,Record Length,6250,,Record Length,6250,,Record Length,6250
Zero Index,1424.20000000,,Zero Index,1424.20000000,,Zero Index,1424.20000000,,Zero Index,1424.20000000,,Zero Index,1424.20000000
Vertical Units,V,,Vertical Units,V,,Vertical Units,A,,Vertical Units,A,,Vertical Units,J
,,,,,,,,,,,,,
ANALOG_Thumbnail,,,ANALOG_Thumbnail,,,ANALOG_Thumbnail,,,ANALOG_Thumbnail,,,,
yOffset,0.000000,,yOffset,0.000000,,yOffset,0.000000,,yOffset,0.000000,,,
yPosition,0.120000,,yPosition,-1.600000,,yPosition,0.000000,,yPosition,0.000000,,,

TIME,CH1,CH2,CH3,CH4,,TIME,MATH1
-2.27872000e-06,-1.00984375e+01,1.18898438e+03,-7.03125000e-02,1.07812500e+00,,-2.27872000e-06,-1.33760736e-07
-2.27712000e-06,-1.00890625e+01,1.18859375e+03,-8.12500000e-01,9.14062500e-01,,-2.27712000e-06,-9.73227088e-07
-2.27552000e-06,-1.00859375e+01,1.18960938e+03,-3.59375000e-01,5.70312500e-01,,-2.27552000e-06,-2.08782581e-06
-2.27392000e-06,-1.00156250e+01,1.19085938e+03,7.81250000e-03,8.20312500e-01,,-2.27392000e-06,-2.42239571e-06
-2.27232000e-06,-1.00203125e+01,1.19039062e+03,-5.15625000e-01,1.08593750e+00,,-2.27232000e-06,-2.90598905e-06
-2.27072000e-06,-1.00828125e+01,1.19085938e+03,9.37500000e-02,1.17968750e+00,,-2.27072000e-06,-3.30771081e-06
-2.26912000e-06,-1.00500000e+01,1.19070312e+03,-4.21875000e-01,9.21875000e-01,,-2.26912000e-06,-3.62025867e-06
-2.26752000e-06,-9.95781250e+00,1.19156250e+03,0.00000000e+00,1.02343750e+00,,-2.26752000e-06,-4.02212117e-06
-2.26592000e-06,-1.01062500e+01,1.19289062e+03,-3.12500000e-02,1.04687500e+00,,-2.26592000e-06,-4.05194351e-06
-2.26432000e-06,-9.97343750e+00,1.19062500e+03,-1.32812500e-01,7.89062500e-01,,-2.26432000e-06,-4.20826973e-06
-2.26272000e-06,-1.00218750e+01,1.18679688e+03,-2.65625000e-01,7.34375000e-01,,-2.26272000e-06,-4.58696786e-06
-2.26112000e-06,-1.01093750e+01,1.19156250e+03,-5.70312500e-01,1.09375000e+00,,-2.26112000e-06,-5.38281256e-06
-2.25952000e-06,-1.00578125e+01,1.19523438e+03,-2.34375000e-01,8.43750000e-01,,-2.25952000e-06,-6.15056933e-06
-2.25792000e-06,-1.00453125e+01,1.18906250e+03,-3.59375000e-01,1.09375000e+00,,-2.25792000e-06,-6.71653106e-06
-2.25632000e-06,-9.98593750e+00,1.19140625e+03,-5.70312500e-01,1.16406250e+00,,-2.25632000e-06,-7.60196554e-06
-2.25472000e-06,-1.00046875e+01,1.19414062e+03,-7.81250000e-02,5.00000000e-01,,-2.25472000e-06,-8.22017864e-06
-2.25312000e-06,-1.00015625e+01,1.18710938e+03,-4.37500000e-01,1.03906250e+00,,-2.25312000e-06,-8.71030079e-06
-2.25152000e-06,-1.00625000e+01,1.19234375e+03,-1.79687500e-01,8.12500000e-01,,-2.25152000e-06,-9.29718863e-06
-2.24992000e-06,-1.01062500e+01,1.18875000e+03,-4.53125000e-01,1.35937500e+00,,-2.24992000e-06,-9.89950968e-06
-2.24832000e-06,-1.01359375e+01,1.19101562e+03,-3.51562500e-01,4.60937500e-01,,-2.24832000e-06,-1.06654043e-05
-2.24672000e-06,-1.00671875e+01,1.19031250e+03,-5.31250000e-01,8.51562500e-01,,-2.24672000e-06,-1.15062603e-05
-2.24512000e-06,-1.01750000e+01,1.19289062e+03,2.42187500e-01,6.87500000e-01,,-2.24512000e-06,-1.17810205e-05
-2.24352000e-06,-1.01062500e+01,1.19179688e+03,-1.32812500e-01,7.96875000e-01,,-2.24352000e-06,-1.16765259e-05
-2.24192000e-06,-1.00390625e+01,1.19234375e+03,-6.64062500e-01,6.64062500e-01,,-2.24192000e-06,-1.24365870e-05
-2.24032000e-06,-1.01046875e+01,1.18742188e+03,-2.89062500e-01,7.65625000e-01,,-2.24032000e-06,-1.33446110e-05
-2.23872000e-06,-1.00437500e+01,1.18718750e+03,-2.96875000e-01,6.95312500e-01,,-2.23872000e-06,-1.39011590e-05
-2.23712000e-06,-1.00468750e+01,1.19117188e+03,-2.73437500e-01,6.56250000e-01,,-2.23712000e-06,-1.44436854e-05
-2.23552000e-06,-1.00625000e+01,1.18867188e+03,-5.39062500e-01,1.03125000e+00,,-2.23552000e-06,-1.52168686e-05
-2.23392000e-06,-1.00437500e+01,1.19125000e+03,-4.06250000e-01,8.20312500e-01,,-2.23392000e-06,-1.61166390e-05
-2.23232000e-06,-1.00984375e+01,1.19429688e+03,-4.84375000e-01,7.26562500e-01,,-2.23232000e-06,-1.69665855e-05
-2.23072000e-06,-1.00437500e+01,1.19109375e+03,-3.98437500e-01,8.67187500e-01,,-2.23072000e-06,-1.78090359e-05
-2.22912000e-06,-1.00687500e+01,1.19156250e+03,-4.84375000e-01,1.02343750e+00,,-2.22912000e-06,-1.86504276e-05
-2.22752000e-06,-1.00890625e+01,1.18796875e+03,-1.79687500e-01,4.53125000e-01,,-2.22752000e-06,-1.92829284e-05
-2.22592000e-06,-1.01546875e+01,1.19226562e+03,-3.82812500e-01,1.17968750e+00,,-2.22592000e-06,-1.98188300e-05
-2.22432000e-06,-1.01421875e+01,1.18843750e+03,5.46875000e-02,7.26562500e-01,,-2.22432000e-06,-2.01319672e-05
-2.22272000e-06,-1.02015625e+01,1.18945312e+03,-3.04687500e-01,7.42187500e-01,,-2.22272000e-06,-2.03699019e-05
-2.22112000e-06,-1.01421875e+01,1.18929688e+03,-3.12500000e-02,8.20312500e-01,,-2.22112000e-06,-2.06895638e-05
-2.21952000e-06,-1.00296875e+01,1.18812500e+03,-2.73437500e-01,7.73437500e-01,,-2.21952000e-06,-2.09791979e-05
-2.21792000e-06,-1.01328125e+01,1.19023438e+03,-2.57812500e-01,9.68750000e-01,,-2.21792000e-06,-2.14845859e-05
-2.21632000e-06,-1.00546875e+01,1.19156250e+03,-5.00000000e-01,8.35937500e-01,,-2.21632000e-06,-2.22066974e-05
-2.21472000e-06,-1.01000000e+01,1.18945312e+03,-3.43750000e-01,1.11718750e+00,,-2.21472000e-06,-2.30104215e-05
-2.21312000e-06,-1.01000000e+01,1.19000000e+03,1.95312500e-01,8.04687500e-01,,-2.21312000e-06,-2.31515842e-05
-2.21152000e-06,-1.00765625e+01,1.18914062e+03,-4.92187500e-01,5.46875000e-01,,-2.21152000e-06,-2.34338713e-05
-2.20992000e-06,-1.01109375e+01,1.19132812e+03,-3.51562500e-01,1.50000000e+00,,-2.20992000e-06,-2.42371570e-05
-2.20832000e-06,-1.00968750e+01,1.19093750e+03,-5.15625000e-01,1.09375000e+00,,-2.20832000e-06,-2.50634803e-05
-2.20672000e-06,-1.01343750e+01,1.18953125e+03,-7.10937500e-01,1.23437500e+00,,-2.20672000e-06,-2.62312878e-05
-2.20512000e-06,-1.00703125e+01,1.18929688e+03,-8.90625000e-01,9.21875000e-01,,-2.20512000e-06,-2.77552081e-05
-2.20352000e-06,-1.00187500e+01,1.19085938e+03,-5.15625000e-01,1.10156250e+00,,-2.20352000e-06,-2.90938115e-05
-2.20192000e-06,-1.00140625e+01,1.19062500e+03,-6.09375000e-01,7.26562500e-01,,-2.20192000e-06,-3.01654709e-05
-2.20032000e-06,-1.00890625e+01,1.19023438e+03,-4.29687500e-01,6.25000000e-01,,-2.20032000e-06,-3.11550430e-05
-2.19872000e-06,-1.00718750e+01,1.18921875e+03,-2.10937500e-01,8.75000000e-01,,-2.19872000e-06,-3.17648664e-05
-2.19712000e-06,-1.01062500e+01,1.18953125e+03,-5.15625000e-01,7.65625000e-01,,-2.19712000e-06,-3.24562279e-05
-2.19552000e-06,-1.00671875e+01,1.18812500e+03,-5.85937500e-01,5.78125000e-01,,-2.19552000e-06,-3.35038421e-05
-2.19392000e-06,-1.01375000e+01,1.19234375e+03,-5.85937500e-01,1.24218750e+00,,-2.19392000e-06,-3.46196866e-05
-2.19232000e-06,-1.01171875e+01,1.18976562e+03,-5.39062500e-01,1.22656250e+00,,-2.19232000e-06,-3.56916826e-05
-2.19072000e-06,-1.00656250e+01,1.19398438e+03,-8.59375000e-02,1.10937500e+00,,-2.19072000e-06,-3.62868559e-05
-2.18912000e-06,-1.01203125e+01,1.19281250e+03,-5.07812500e-01,9.06250000e-01,,-2.18912000e-06,-3.68535220e-05
-2.18752000e-06,-1.01375000e+01,1.19140625e+03,-2.26562500e-01,8.12500000e-01,,-2.18752000e-06,-3.75540440e-05
-2.18592000e-06,-1.00843750e+01,1.19273438e+03,-7.03125000e-01,1.13281250e+00,,-2.18592000e-06,-3.84408995e-05
-2.18432000e-06,-1.01296875e+01,1.18976562e+03,-6.56250000e-01,1.03125000e+00,,-2.18432000e-06,-3.97364383e-05
-2.18272000e-06,-1.00390625e+01,1.18812500e+03,-7.73437500e-01,4.37500000e-01,,-2.18272000e-06,-4.10962166e-05
-2.18112000e-06,-1.01390625e+01,1.19304688e+03,-4.76562500e-01,1.03906250e+00,,-2.18112000e-06,-4.22862176e-05
-2.17952000e-06,-1.00906250e+01,1.18976562e+03,-9.76562500e-01,1.19531250e+00,,-2.17952000e-06,-4.36705704e-05
-2.17792000e-06,-1.01312500e+01,1.18882812e+03,-4.29687500e-01,1.10937500e+00,,-2.17792000e-06,-4.50087355e-05
-2.17632000e-06,-1.00218750e+01,1.18953125e+03,-5.39062500e-01,1.07812500e+00,,-2.17632000e-06,-4.59303810e-05
-2.17472000e-06,-1.01531250e+01,1.18843750e+03,-6.09375000e-01,1.09375000e+00,,-2.17472000e-06,-4.70227315e-05
-2.17312000e-06,-1.01343750e+01,1.18515625e+03,6.25000000e-02,1.23437500e+00,,-2.17312000e-06,-4.75428387e-05
-2.17152000e-06,-1.01218750e+01,1.19046875e+03,-4.21875000e-01,8.04687500e-01,,-2.17152000e-06,-4.78853653e-05
-2.16992000e-06,-1.00062500e+01,1.18984375e+03,-4.14062500e-01,1.04687500e+00,,-2.16992000e-06,-4.86812860e-05
-2.16832000e-06,-1.00593750e+01,1.18968750e+03,-2.18750000e-01,1.17968750e+00,,-2.16832000e-06,-4.92836152e-05
-2.16672000e-06,-1.00078125e+01,1.19101562e+03,-5.39062500e-01,1.17187500e+00,,-2.16672000e-06,-5.00054375e-05
-2.16512000e-06,-1.00250000e+01,1.19062500e+03,-6.87500000e-01,8.90625000e-01,,-2.16512000e-06,-5.11739054e-05
-2.16352000e-06,-1.01281250e+01,1.19156250e+03,-3.51562500e-01,1.05468750e+00,,-2.16352000e-06,-5.21638758e-05
-2.16192000e-06,-1.00609375e+01,1.19226562e+03,1.25000000e-01,1.03125000e+00,,-2.16192000e-06,-5.23797753e-05
-2.16032000e-06,-1.00859375e+01,1.18992188e+03,-1.17187500e-01,5.85937500e-01,,-2.16032000e-06,-5.23721028e-05
-2.15872000e-06,-1.01140625e+01,1.19328125e+03,-4.45312500e-01,6.25000000e-01,,-2.15872000e-06,-5.29087629e-05
-2.15712000e-06,-1.00390625e+01,1.19765625e+03,-2.57812500e-01,6.71875000e-01,,-2.15712000e-06,-5.35808867e-05
-2.15552000e-06,-1.00500000e+01,1.19492188e+03,-5.70312500e-01,6.64062500e-01,,-2.15552000e-06,-5.43730857e-05
-2.15392000e-06,-1.00671875e+01,1.19304688e+03,-5.93750000e-01,6.71875000e-01,,-2.15392000e-06,-5.54849648e-05
-2.15232000e-06,-1.00609375e+01,1.19265625e+03,-4.21875000e-01,5.78125000e-01,,-2.15232000e-06,-5.64541842e-05
-2.15072000e-06,-1.01015625e+01,1.19492188e+03,-9.29687500e-01,6.09375000e-01,,-2.15072000e-06,-5.77454302e-05
-2.14912000e-06,-1.01218750e+01,1.19359375e+03,-5.15625000e-01,6.64062500e-01,,-2.14912000e-06,-5.91265125e-05
-2.14752000e-06,-1.01703125e+01,1.19265625e+03,-7.34375000e-01,4.84375000e-01,,-2.14752000e-06,-6.03195549e-05
-2.14592000e-06,-1.01343750e+01,1.19421875e+03,-5.78125000e-01,3.75000000e-01,,-2.14592000e-06,-6.15725658e-05
-2.14432000e-06,-1.01062500e+01,1.19335938e+03,-4.68750000e-01,9.45312500e-01,,-2.14432000e-06,-6.25723987e-05
-2.14272000e-06,-1.01578125e+01,1.19578125e+03,-3.20312500e-01,6.17187500e-01,,-2.14272000e-06,-6.33263262e-05
-2.14112000e-06,-1.00968750e+01,1.19257812e+03,-4.92187500e-01,6.01562500e-01,,-2.14112000e-06,-6.41023216e-05
-2.13952000e-06,-1.00718750e+01,1.18914062e+03,-5.15625000e-01,7.18750000e-01,,-2.13952000e-06,-6.50624206e-05
-2.13792000e-06,-1.01562500e+01,1.19164062e+03,-5.07812500e-01,1.21093750e+00,,-2.13792000e-06,-6.60370424e-05
-2.13632000e-06,-1.00343750e+01,1.19164062e+03,-2.50000000e-01,9.60937500e-01,,-2.13632000e-06,-6.67594722e-05
-2.13472000e-06,-1.00671875e+01,1.19296875e+03,-2.89062500e-01,9.84375000e-01,,-2.13472000e-06,-6.72736714e-05
-2.13312000e-06,-1.01140625e+01,1.18968750e+03,-3.04687500e-01,1.28125000e+00,,-2.13312000e-06,-6.78395299e-05
-2.13152000e-06,-1.01171875e+01,1.19312500e+03,-1.71875000e-01,9.37500000e-01,,-2.13152000e-06,-6.82935715e-05
-2.12992000e-06,-1.00984375e+01,1.18890625e+03,-3.82812500e-01,5.07812500e-01,,-2.12992000e-06,-6.88217260e-05
-2.12832000e-06,-1.00828125e+01,1.19226562e+03,-2.03125000e-01,9.45312500e-01,,-2.12832000e-06,-6.93795737e-05
-2.12672000e-06,-1.00265625e+01,1.19078125e+03,-1.79687500e-01,1.08593750e+00,,-2.12672000e-06,-6.97444921e-05
-2.12512000e-06,-1.01375000e+01,1.18945312e+03,-1.79687500e-01,8.12500000e-01,,-2.12512000e-06,-7.00866512e-05
-2.12352000e-06,-1.00546875e+01,1.19015625e+03,-4.60937500e-01,1.25000000e+00,,-2.12352000e-06,-7.06965075e-05
-2.12192000e-06,-1.01281250e+01,1.19000000e+03,2.10937500e-01,6.48437500e-01,,-2.12192000e-06,-7.09345622e-05
-2.12032000e-06,-1.01046875e+01,1.19070312e+03,-3.12500000e-02,9.37500000e-01,,-2.12032000e-06,-7.07635190e-05
-2.11872000e-06,-1.00328125e+01,1.19203125e+03,-5.46875000e-02,9.06250000e-01,,-2.11872000e-06,-7.08454390e-05
-2.11712000e-06,-1.01968750e+01,1.18906250e+03,-9.37500000e-02,1.33593750e+00,,-2.11712000e-06,-7.09867672e-05
-2.11552000e-06,-1.00562500e+01,1.19179688e+03,-2.03125000e-01,1.09375000e+00,,-2.11552000e-06,-7.12696128e-05
-2.11392000e-06,-1.01328125e+01,1.18937500e+03,-2.42187500e-01,1.18750000e+00,,-2.11392000e-06,-7.16937211e-05
-2.11232000e-06,-1.01750000e+01,1.19289062e+03,-8.59375000e-02,1.32031250e+00,,-2.11232000e-06,-7.20061726e-05
-2.11072000e-06,-1.00953125e+01,1.18976562e+03,4.68750000e-02,8.98437500e-01,,-2.11072000e-06,-7.20435710e-05
-2.10912000e-06,-1.00984375e+01,1.19171875e+03,-3.28125000e-01,7.81250000e-01,,-2.10912000e-06,-7.23117773e-05
-2.10752000e-06,-1.01093750e+01,1.18867188e+03,-5.23437500e-01,1.02343750e+00,,-2.10752000e-06,-7.31223627e-05
-2.10592000e-06,-1.01312500e+01,1.18703125e+03,-3.28125000e-01,1.03125000e+00,,-2.10592000e-06,-7.39317111e-05
-2.10432000e-06,-1.00531250e+01,1.19179688e+03,-2.34375000e-01,9.45312500e-01,,-2.10432000e-06,-7.44667705e-05
-2.10272000e-06,-1.00171875e+01,1.19140625e+03,-3.43750000e-01,1.09375000e+00,,-2.10272000e-06,-7.50178660e-05
-2.10112000e-06,-1.00812500e+01,1.18750000e+03,-4.76562500e-01,9.37500000e-01,,-2.10112000e-06,-7.57982343e-05
-2.09952000e-06,-1.01562500e+01,1.19000000e+03,-2.26562500e-01,1.14843750e+00,,-2.09952000e-06,-7.64666547e-05
-2.09792000e-06,-1.00640625e+01,1.19429688e+03,-6.95312500e-01,1.18750000e+00,,-2.09792000e-06,-7.73466672e-05
-2.09632000e-06,-1.01406250e+01,1.18859375e+03,-3.90625000e-01,8.51562500e-01,,-2.09632000e-06,-7.83824289e-05
-2.09472000e-06,-1.01000000e+01,1.19085938e+03,-1.64062500e-01,1.18750000e+00,,-2.09472000e-06,-7.89101614e-05
-2.09312000e-06,-1.01218750e+01,1.18820312e+03,-2.42187500e-01,1.20312500e+00,,-2.09312000e-06,-7.92966748e-05
-2.09152000e-06,-1.01750000e+01,1.19382812e+03,-3.43750000e-01,1.00781250e+00,,-2.09152000e-06,-7.98551919e-05
-2.08992000e-06,-1.01093750e+01,1.19125000e+03,-2.81250000e-01,1.22656250e+00,,-2.08992000e-06,-8.04515294e-05
-2.08832000e-06,-1.01406250e+01,1.19320312e+03,-5.85937500e-01,1.00781250e+00,,-2.08832000e-06,-8.12788712e-05
-2.08672000e-06,-1.01234375e+01,1.19054688e+03,-3.43750000e-01,1.54687500e+00,,-2.08672000e-06,-8.21655849e-05
-2.08512000e-06,-1.00921875e+01,1.18976562e+03,-1.87500000e-01,9.29687500e-01,,-2.08512000e-06,-8.26714531e-05
-2.08352000e-06,-1.00328125e+01,1.19359375e+03,-7.96875000e-01,1.54687500e+00,,-2.08352000e-06,-8.36108375e-05
-2.08192000e-06,-1.01265625e+01,1.19390625e+03,-7.50000000e-01,1.28906250e+00,,-2.08192000e-06,-8.50880970e-05
-2.08032000e-06,-1.00437500e+01,1.19164062e+03,-1.40625000e-01,1.28125000e+00,,-2.08032000e-06,-8.59385036e-05
-2.07872000e-06,-1.01765625e+01,1.19132812e+03,-4.21875000e-01,1.05468750e+00,,-2.07872000e-06,-8.64746398e-05
-2.07712000e-06,-1.01343750e+01,1.19132812e+03,-6.71875000e-01,9.76562500e-01,,-2.07712000e-06,-8.75170517e-05
-2.07552000e-06,-1.01015625e+01,1.19281250e+03,-6.56250000e-01,1.07031250e+00,,-2.07552000e-06,-8.87836140e-05
-2.07392000e-06,-1.00765625e+01,1.19078125e+03,-4.45312500e-01,8.04687500e-01,,-2.07392000e-06,-8.98340586e-05
-2.07232000e-06,-9.99375000e+00,1.19078125e+03,-7.73437500e-01,9.06250000e-01,,-2.07232000e-06,-9.09950686e-05
-2.07072000e-06,-1.01093750e+01,1.19179688e+03,-5.07812500e-01,8.90625000e-01,,-2.07072000e-06,-9.22160325e-05
-2.06912000e-06,-1.00203125e+01,1.19093750e+03,-1.56250000e-01,9.84375000e-01,,-2.06912000e-06,-9.28490699e-05
-2.06752000e-06,-1.00921875e+01,1.19226562e+03,-7.26562500e-01,1.06250000e+00,,-2.06752000e-06,-9.36909419e-05
-2.06592000e-06,-1.00828125e+01,1.19140625e+03,-8.35937500e-01,1.21875000e+00,,-2.06592000e-06,-9.51807015e-05
-2.06432000e-06,-1.01218750e+01,1.19320312e+03,-5.54687500e-01,1.11718750e+00,,-2.06432000e-06,-9.65069412e-05
-2.06272000e-06,-1.00437500e+01,1.19265625e+03,-6.40625000e-01,1.26562500e+00,,-2.06272000e-06,-9.76476585e-05
-2.06112000e-06,-1.00796875e+01,1.19000000e+03,-6.32812500e-01,9.76562500e-01,,-2.06112000e-06,-9.88613319e-05
-2.05952000e-06,-1.00875000e+01,1.19523438e+03,-2.18750000e-01,1.09375000e+00,,-2.05952000e-06,-9.96729359e-05
-2.05792000e-06,-1.00781250e+01,1.19445312e+03,-2.73437500e-01,1.01562500e+00,,-2.05792000e-06,-1.00143392e-04
-2.05632000e-06,-1.01625000e+01,1.19226562e+03,-7.03125000e-01,1.42968750e+00,,-2.05632000e-06,-1.01075326e-04
-2.05472000e-06,-1.00859375e+01,1.19226562e+03,-3.51562500e-01,1.13281250e+00,,-2.05472000e-06,-1.02081300e-04
-2.05312000e-06,-1.00250000e+01,1.19507812e+03,-3.51562500e-01,7.10937500e-01,,-2.05312000e-06,-1.02752740e-04
-2.05152000e-06,-1.00656250e+01,1.19437500e+03,-6.32812500e-01,7.50000000e-01,,-2.05152000e-06,-1.03693506e-04
-2.04992000e-06,-1.01218750e+01,1.19328125e+03,5.46875000e-02,1.07031250e+00,,-2.04992000e-06,-1.04245955e-04
-2.04832000e-06,-1.00953125e+01,1.19195312e+03,-1.01562500e-01,6.17187500e-01,,-2.04832000e-06,-1.04290593e-04
-2.04672000e-06,-1.01750000e+01,1.19218750e+03,-3.67187500e-01,9.45312500e-01,,-2.04672000e-06,-1.04737643e-04
-2.04512000e-06,-1.01281250e+01,1.19250000e+03,-6.32812500e-01,1.05468750e+00,,-2.04512000e-06,-1.05691550e-04
-2.04352000e-06,-1.01140625e+01,1.19250000e+03,-3.12500000e-02,7.73437500e-01,,-2.04352000e-06,-1.06325067e-04
-2.04192000e-06,-1.00265625e+01,1.19164062e+03,-4.06250000e-01,1.28906250e+00,,-2.04192000e-06,-1.06742162e-04
-2.04032000e-06,-1.01093750e+01,1.19398438e+03,-2.57812500e-01,1.42968750e+00,,-2.04032000e-06,-1.07375701e-04
-2.03872000e-06,-1.00640625e+01,1.19593750e+03,8.59375000e-02,1.01562500e+00,,-2.03872000e-06,-1.07539738e-04
-2.03712000e-06,-1.00328125e+01,1.19515625e+03,-1.40625000e-01,7.18750000e-01,,-2.03712000e-06,-1.07591972e-04
-2.03552000e-06,-1.01218750e+01,1.19398438e+03,-3.82812500e-01,8.04687500e-01,,-2.03552000e-06,-1.08092085e-04
-2.03392000e-06,-1.00859375e+01,1.18914062e+03,-7.81250000e-02,1.00000000e+00,,-2.03392000e-06,-1.08532062e-04
-2.03232000e-06,-1.02468750e+01,1.18750000e+03,8.59375000e-02,9.14062500e-01,,-2.03232000e-06,-1.08524742e-04
-2.03072000e-06,-1.00312500e+01,1.19046875e+03,-1.56250000e-01,9.21875000e-01,,-2.03072000e-06,-1.08591907e-04
-2.02912000e-06,-1.00218750e+01,1.18859375e+03,-4.92187500e-01,7.81250000e-01,,-2.02912000e-06,-1.09208726e-04
-2.02752000e-06,-1.00734375e+01,1.18953125e+03,-1.56250000e-02,1.31250000e+00,,-2.02752000e-06,-1.09691602e-04
-2.02592000e-06,-1.01234375e+01,1.18757812e+03,-5.23437500e-01,1.05468750e+00,,-2.02592000e-06,-1.10203771e-04
-2.02432000e-06,-1.00453125e+01,1.19078125e+03,-3.43750000e-01,8.12500000e-01,,-2.02432000e-06,-1.11028538e-04
-2.02272000e-06,-1.00859375e+01,1.18890625e+03,-2.65625000e-01,8.12500000e-01,,-2.02272000e-06,-1.11608642e-04
-2.02112000e-06,-1.00640625e+01,1.19171875e+03,-8.43750000e-01,8.28125000e-01,,-2.02112000e-06,-1.12665693e-04
-2.01952000e-06,-1.00437500e+01,1.18937500e+03,-5.31250000e-01,6.32812500e-01,,-2.01952000e-06,-1.13975591e-04
-2.01792000e-06,-1.01281250e+01,1.18562500e+03,-1.95312500e-01,1.05468750e+00,,-2.01792000e-06,-1.14666327e-04
-2.01632000e-06,-1.00390625e+01,1.18867188e+03,-9.45312500e-01,9.45312500e-01,,-2.01632000e-06,-1.15750518e-04
-2.01472000e-06,-1.00875000e+01,1.19226562e+03,-2.57812500e-01,1.38281250e+00,,-2.01472000e-06,-1.16895353e-04
-2.01312000e-06,-1.01281250e+01,1.19109375e+03,-4.92187500e-01,1.03125000e+00,,-2.01312000e-06,-1.17610252e-04
-2.01152000e-06,-1.01156250e+01,1.19070312e+03,-4.45312500e-01,7.89062500e-01,,-2.01152000e-06,-1.18503434e-04
-2.00992000e-06,-1.00312500e+01,1.18882812e+03,-2.34375000e-01,1.39843750e+00,,-2.00992000e-06,-1.19150529e-04
-2.00832000e-06,-1.00453125e+01,1.19195312e+03,-2.50000000e-01,1.07812500e+00,,-2.00832000e-06,-1.19611825e-04
