电流数据/SC8_ALL.csv

Model,MSO58
Channel,CH6,,Channel,CH7,,Channel,CH8,,Channel,MATH1
Waveform Type,ANALOG,,Waveform Type,ANALOG,,Waveform Type,ANALOG,,Waveform Type,ANALOG
Horizontal Units,s,,Horizontal Units,s,,Horizontal Units,s,,Horizontal Units,s
Sample Interval,1.60000000e-09,,Sample Interval,1.60000000e-09,,Sample Interval,1.60000000e-09,,Sample Interval,1.60000000e-09
Record Length,12500,,Record Length,12500,,Record Length,12500,,Record Length,12500
Zero Index,2324.00000000,,Zero Index,2324.00000000,,Zero Index,2324.00000000,,Zero Index,2324.00000000
Vertical Units,V,,Vertical Units,V,,Vertical Units,A,,Vertical Units,J
,,,,,,,,,,
ANALOG_Thumbnail,,,ANALOG_Thumbnail,,,ANALOG_Thumbnail,,,,
yOffset,0.000000,,yOffset,0.000000,,yOffset,0.000000,,,
yPosition,-0.860000,,yPosition,-2.100000,,yPosition,-2.940000,,,

TIME,CH6,CH7,CH8,,TIME,MATH1
-3.71840000e-06,-4.05937500e+00,1.69929688e+03,5.78125000e+00,,-3.71840000e-06,1.57184968e-05
-3.71680000e-06,-4.04843750e+00,1.69406250e+03,7.06250000e+00,,-3.71680000e-06,3.31491974e-05
-3.71520000e-06,-3.82656250e+00,1.69601562e+03,6.28125000e+00,,-3.71520000e-06,5.12431288e-05
-3.71360000e-06,-4.01250000e+00,1.69906250e+03,5.64062500e+00,,-3.71360000e-06,6.74326293e-05
-3.71200000e-06,-4.00625000e+00,1.70328125e+03,6.82812500e+00,,-3.71200000e-06,8.44038223e-05
-3.71040000e-06,-3.96562500e+00,1.69476562e+03,5.67187500e+00,,-3.71040000e-06,1.01397993e-04
-3.70880000e-06,-4.05625000e+00,1.70125000e+03,5.62500000e+00,,-3.70880000e-06,1.16743620e-04
-3.70720000e-06,-4.20156250e+00,1.70171875e+03,7.20312500e+00,,-3.70720000e-06,1.34205402e-04
-3.70560000e-06,-3.94843750e+00,1.69492188e+03,6.03125000e+00,,-3.70560000e-06,1.52189561e-04
-3.70400000e-06,-4.06718750e+00,1.70031250e+03,5.62500000e+00,,-3.70400000e-06,1.68018960e-04
-3.70240000e-06,-4.00937500e+00,1.70054688e+03,5.46875000e+00,,-3.70240000e-06,1.83110256e-04
-3.70080000e-06,-3.95000000e+00,1.69500000e+03,6.85937500e+00,,-3.70080000e-06,1.99851464e-04
-3.69920000e-06,-4.05625000e+00,1.69968750e+03,5.43750000e+00,,-3.69920000e-06,2.16546410e-04
-3.69760000e-06,-3.99531250e+00,1.70312500e+03,4.85937500e+00,,-3.69760000e-06,2.30560952e-04
-3.69600000e-06,-3.96093750e+00,1.69828125e+03,5.56250000e+00,,-3.69600000e-06,2.44739203e-04
-3.69440000e-06,-3.98125000e+00,1.69875000e+03,5.98437500e+00,,-3.69440000e-06,2.60429311e-04
-3.69280000e-06,-4.05312500e+00,1.70179688e+03,5.25000000e+00,,-3.69280000e-06,2.75709637e-04
-3.69120000e-06,-4.03125000e+00,1.70125000e+03,6.59375000e+00,,-3.69120000e-06,2.91831268e-04
-3.68960000e-06,-3.99843750e+00,1.69546875e+03,5.06250000e+00,,-3.68960000e-06,3.07672017e-04
-3.68800000e-06,-4.00937500e+00,1.69515625e+03,5.46875000e+00,,-3.68800000e-06,3.21954984e-04
-3.68640000e-06,-4.07031250e+00,1.70023438e+03,7.15625000e+00,,-3.68640000e-06,3.39105143e-04
-3.68480000e-06,-3.91875000e+00,1.69898438e+03,6.14062500e+00,,-3.68480000e-06,3.57185258e-04
-3.68320000e-06,-4.00781250e+00,1.69726562e+03,5.67187500e+00,,-3.68320000e-06,3.73232848e-04
-3.68160000e-06,-4.00781250e+00,1.70273438e+03,6.12500000e+00,,-3.68160000e-06,3.89277586e-04
-3.68000000e-06,-3.92031250e+00,1.69570312e+03,6.35937500e+00,,-3.68000000e-06,4.06247884e-04
-3.67840000e-06,-3.93125000e+00,1.69554688e+03,5.56250000e+00,,-3.67840000e-06,4.22419951e-04
-3.67680000e-06,-3.95625000e+00,1.69890625e+03,6.26562500e+00,,-3.67680000e-06,4.38480900e-04
-3.67520000e-06,-3.91250000e+00,1.69406250e+03,6.39062500e+00,,-3.67520000e-06,4.55657573e-04
-3.67360000e-06,-4.01875000e+00,1.69984375e+03,6.09375000e+00,,-3.67360000e-06,4.72605199e-04
-3.67200000e-06,-4.06718750e+00,1.70171875e+03,4.76562500e+00,,-3.67200000e-06,4.87379730e-04
-3.67040000e-06,-3.85625000e+00,1.69726562e+03,6.14062500e+00,,-3.67040000e-06,5.02205337e-04
-3.66880000e-06,-3.97968750e+00,1.69804688e+03,5.60937500e+00,,-3.66880000e-06,5.18163142e-04
-3.66720000e-06,-4.02656250e+00,1.70468750e+03,4.64062500e+00,,-3.66720000e-06,5.32111793e-04
-3.66560000e-06,-3.96875000e+00,1.70070312e+03,7.15625000e+00,,-3.66560000e-06,5.48176991e-04
-3.66400000e-06,-4.00625000e+00,1.70218750e+03,5.50000000e+00,,-3.66400000e-06,5.65403141e-04
-3.66240000e-06,-4.01718750e+00,1.69882812e+03,4.70312500e+00,,-3.66240000e-06,5.79284620e-04
-3.66080000e-06,-4.08593750e+00,1.69835938e+03,6.85937500e+00,,-3.66080000e-06,5.94996207e-04
-3.65920000e-06,-3.92031250e+00,1.69898438e+03,5.79687500e+00,,-3.65920000e-06,6.12194999e-04
-3.65760000e-06,-3.96406250e+00,1.69890625e+03,5.79687500e+00,,-3.65760000e-06,6.27952744e-04
-3.65600000e-06,-4.12031250e+00,1.70109375e+03,6.60937500e+00,,-3.65600000e-06,6.44825981e-04
-3.65440000e-06,-3.98281250e+00,1.69585938e+03,6.40625000e+00,,-3.65440000e-06,6.62511797e-04
-3.65280000e-06,-3.96250000e+00,1.69984375e+03,6.84375000e+00,,-3.65280000e-06,6.80509722e-04
-3.65120000e-06,-3.95625000e+00,1.70070312e+03,6.39062500e+00,,-3.65120000e-06,6.98511198e-04
-3.64960000e-06,-3.98125000e+00,1.69656250e+03,7.20312500e+00,,-3.64960000e-06,7.16982468e-04
-3.64800000e-06,-3.97187500e+00,1.69382812e+03,5.81250000e+00,,-3.64800000e-06,7.34635221e-04
-3.64640000e-06,-4.07031250e+00,1.70007812e+03,5.48437500e+00,,-3.64640000e-06,7.49970612e-04
-3.64480000e-06,-3.91875000e+00,1.69726562e+03,7.23437500e+00,,-3.64480000e-06,7.67252641e-04
-3.64320000e-06,-3.99687500e+00,1.69671875e+03,6.12500000e+00,,-3.64320000e-06,7.85389508e-04
-3.64160000e-06,-3.95937500e+00,1.69828125e+03,5.60937500e+00,,-3.64160000e-06,8.01324495e-04
-3.64000000e-06,-3.99531250e+00,1.69859375e+03,7.40625000e+00,,-3.64000000e-06,8.19009729e-04
-3.63840000e-06,-3.97343750e+00,1.69671875e+03,6.76562500e+00,,-3.63840000e-06,8.38257372e-04
-3.63680000e-06,-4.04062500e+00,1.69789062e+03,6.28125000e+00,,-3.63680000e-06,8.55972758e-04
-3.63520000e-06,-4.10000000e+00,1.69687500e+03,7.57812500e+00,,-3.63520000e-06,8.74791935e-04
-3.63360000e-06,-3.94687500e+00,1.69601562e+03,7.35937500e+00,,-3.63360000e-06,8.95064557e-04
-3.63200000e-06,-4.12656250e+00,1.69796875e+03,5.70312500e+00,,-3.63200000e-06,9.12796822e-04
-3.63040000e-06,-4.05156250e+00,1.69695312e+03,7.37500000e+00,,-3.63040000e-06,9.30555805e-04
-3.62880000e-06,-4.01406250e+00,1.69554688e+03,6.17187500e+00,,-3.62880000e-06,9.48939589e-04
-3.62720000e-06,-4.07812500e+00,1.69796875e+03,5.95312500e+00,,-3.62720000e-06,9.65397921e-04
-3.62560000e-06,-4.12343750e+00,1.69750000e+03,5.34375000e+00,,-3.62560000e-06,9.80741344e-04
-3.62400000e-06,-3.97031250e+00,1.69742188e+03,6.32812500e+00,,-3.62400000e-06,9.96591407e-04
-3.62240000e-06,-4.04687500e+00,1.69640625e+03,5.35937500e+00,,-3.62240000e-06,1.01245800e-03
-3.62080000e-06,-4.07343750e+00,1.69867188e+03,5.26562500e+00,,-3.62080000e-06,1.02688698e-03
-3.61920000e-06,-4.10937500e+00,1.69812500e+03,6.14062500e+00,,-3.61920000e-06,1.04238465e-03
-3.61760000e-06,-4.01093750e+00,1.69765625e+03,6.31250000e+00,,-3.61760000e-06,1.05929980e-03
-3.61600000e-06,-4.02812500e+00,1.69554688e+03,4.89062500e+00,,-3.61600000e-06,1.07450678e-03
-3.61440000e-06,-4.08906250e+00,1.69781250e+03,7.31250000e+00,,-3.61440000e-06,1.09107280e-03
-3.61280000e-06,-4.02968750e+00,1.69632812e+03,6.20312500e+00,,-3.61280000e-06,1.10942300e-03
-3.61120000e-06,-4.07656250e+00,1.69835938e+03,5.21875000e+00,,-3.61120000e-06,1.12493173e-03
-3.60960000e-06,-4.09375000e+00,1.69867188e+03,6.59375000e+00,,-3.60960000e-06,1.14098284e-03
-3.60800000e-06,-4.00625000e+00,1.69125000e+03,6.79687500e+00,,-3.60800000e-06,1.15913956e-03
-3.60640000e-06,-4.12031250e+00,1.70101562e+03,5.45312500e+00,,-3.60640000e-06,1.17575645e-03
-3.60480000e-06,-4.12812500e+00,1.70265625e+03,6.14062500e+00,,-3.60480000e-06,1.19154144e-03
-3.60320000e-06,-4.01562500e+00,1.69328125e+03,6.67187500e+00,,-3.60320000e-06,1.20894366e-03
-3.60160000e-06,-4.13125000e+00,1.69703125e+03,6.06250000e+00,,-3.60160000e-06,1.22621213e-03
-3.60000000e-06,-4.20000000e+00,1.69710938e+03,6.21875000e+00,,-3.60000000e-06,1.24288583e-03
-3.59840000e-06,-4.07656250e+00,1.69234375e+03,6.46875000e+00,,-3.59840000e-06,1.26008678e-03
-3.59680000e-06,-4.18125000e+00,1.69859375e+03,6.18750000e+00,,-3.59680000e-06,1.27725268e-03
-3.59520000e-06,-4.15312500e+00,1.69921875e+03,5.15625000e+00,,-3.59520000e-06,1.29267003e-03
-3.59360000e-06,-4.08750000e+00,1.69609375e+03,7.09375000e+00,,-3.59360000e-06,1.30930461e-03
-3.59200000e-06,-4.08281250e+00,1.69695312e+03,5.92187500e+00,,-3.59200000e-06,1.32696924e-03
-3.59040000e-06,-4.10156250e+00,1.70328125e+03,5.14062500e+00,,-3.59040000e-06,1.34201325e-03
-3.58880000e-06,-4.18437500e+00,1.69890625e+03,7.35937500e+00,,-3.58880000e-06,1.35902024e-03
-3.58720000e-06,-4.14375000e+00,1.69804688e+03,6.01562500e+00,,-3.58720000e-06,1.37719442e-03
-3.58560000e-06,-4.12031250e+00,1.69937500e+03,5.37500000e+00,,-3.58560000e-06,1.39267358e-03
-3.58400000e-06,-4.15625000e+00,1.69796875e+03,7.25000000e+00,,-3.58400000e-06,1.40982913e-03
-3.58240000e-06,-4.07500000e+00,1.69460938e+03,6.79687500e+00,,-3.58240000e-06,1.42889179e-03
-3.58080000e-06,-4.12656250e+00,1.69609375e+03,6.18750000e+00,,-3.58080000e-06,1.44650193e-03
-3.57920000e-06,-4.18593750e+00,1.69601562e+03,6.25000000e+00,,-3.57920000e-06,1.46337773e-03
-3.57760000e-06,-3.97812500e+00,1.69414062e+03,6.68750000e+00,,-3.57760000e-06,1.48092140e-03
-3.57600000e-06,-4.06406250e+00,1.69765625e+03,6.31250000e+00,,-3.57600000e-06,1.49855821e-03
-3.57440000e-06,-4.21406250e+00,1.70070312e+03,7.25000000e+00,,-3.57440000e-06,1.51699549e-03
-3.57280000e-06,-4.04843750e+00,1.69484375e+03,7.01562500e+00,,-3.57280000e-06,1.53637188e-03
-3.57120000e-06,-4.10937500e+00,1.70039062e+03,6.10937500e+00,,-3.57120000e-06,1.55419484e-03
-3.56960000e-06,-4.07656250e+00,1.70125000e+03,5.82812500e+00,,-3.56960000e-06,1.57043757e-03
-3.56800000e-06,-4.07656250e+00,1.69234375e+03,7.51562500e+00,,-3.56800000e-06,1.58854481e-03
-3.56640000e-06,-4.00625000e+00,1.69429688e+03,6.17187500e+00,,-3.56640000e-06,1.60708558e-03
-3.56480000e-06,-4.00468750e+00,1.69632812e+03,5.70312500e+00,,-3.56480000e-06,1.62319071e-03
-3.56320000e-06,-4.01875000e+00,1.69570312e+03,7.10937500e+00,,-3.56320000e-06,1.64057454e-03
-3.56160000e-06,-3.92812500e+00,1.69718750e+03,7.18750000e+00,,-3.56160000e-06,1.65997772e-03
-3.56000000e-06,-4.07656250e+00,1.69828125e+03,6.10937500e+00,,-3.56000000e-06,1.67803688e-03
-3.55840000e-06,-4.07031250e+00,1.69914062e+03,7.17187500e+00,,-3.55840000e-06,1.69608602e-03
-3.55680000e-06,-4.07968750e+00,1.69578125e+03,6.73437500e+00,,-3.55680000e-06,1.71497092e-03
-3.55520000e-06,-4.11718750e+00,1.69757812e+03,6.34375000e+00,,-3.55520000e-06,1.73272216e-03
-3.55360000e-06,-4.28125000e+00,1.70000000e+03,6.92187500e+00,,-3.55360000e-06,1.75075117e-03
-3.55200000e-06,-4.10312500e+00,1.69460938e+03,6.96875000e+00,,-3.55200000e-06,1.76961231e-03
-3.55040000e-06,-4.23281250e+00,1.69546875e+03,7.26562500e+00,,-3.55040000e-06,1.78891467e-03
-3.54880000e-06,-4.19843750e+00,1.69656250e+03,5.92187500e+00,,-3.54880000e-06,1.80680701e-03
-3.54720000e-06,-4.07812500e+00,1.69679688e+03,6.75000000e+00,,-3.54720000e-06,1.82400714e-03
-3.54560000e-06,-4.15781250e+00,1.69929688e+03,6.20312500e+00,,-3.54560000e-06,1.84160261e-03
-3.54400000e-06,-4.15937500e+00,1.69843750e+03,5.34375000e+00,,-3.54400000e-06,1.85729621e-03
-3.54240000e-06,-4.06250000e+00,1.69679688e+03,7.57812500e+00,,-3.54240000e-06,1.87484385e-03
-3.54080000e-06,-4.15312500e+00,1.70015625e+03,6.12500000e+00,,-3.54080000e-06,1.89346145e-03
-3.53920000e-06,-4.06875000e+00,1.70046875e+03,6.67187500e+00,,-3.53920000e-06,1.91086845e-03
-3.53760000e-06,-4.12343750e+00,1.69742188e+03,7.60937500e+00,,-3.53760000e-06,1.93027779e-03
-3.53600000e-06,-4.07343750e+00,1.69375000e+03,5.95312500e+00,,-3.53600000e-06,1.94867735e-03
-3.53440000e-06,-4.08281250e+00,1.70414062e+03,6.35937500e+00,,-3.53440000e-06,1.96541357e-03
-3.53280000e-06,-4.17812500e+00,1.70226562e+03,7.53125000e+00,,-3.53280000e-06,1.98433944e-03
-3.53120000e-06,-4.06093750e+00,1.69539062e+03,5.90625000e+00,,-3.53120000e-06,2.00260640e-03
-3.52960000e-06,-4.07656250e+00,1.70359375e+03,5.59375000e+00,,-3.52960000e-06,2.01824075e-03
-3.52800000e-06,-4.03750000e+00,1.70382812e+03,6.96875000e+00,,-3.52800000e-06,2.03536311e-03
-3.52640000e-06,-4.04531250e+00,1.69671875e+03,6.50000000e+00,,-3.52640000e-06,2.05368479e-03
-3.52480000e-06,-4.10937500e+00,1.70109375e+03,6.70312500e+00,,-3.52480000e-06,2.07162974e-03
-3.52320000e-06,-4.13593750e+00,1.69929688e+03,6.37500000e+00,,-3.52320000e-06,2.08941824e-03
-3.52160000e-06,-4.02500000e+00,1.69531250e+03,6.87500000e+00,,-3.52160000e-06,2.10740883e-03
-3.52000000e-06,-4.06875000e+00,1.69742188e+03,6.67187500e+00,,-3.52000000e-06,2.12579314e-03
-3.51840000e-06,-3.99218750e+00,1.70421875e+03,5.85937500e+00,,-3.51840000e-06,2.14284169e-03
-3.51680000e-06,-4.02656250e+00,1.69500000e+03,7.32812500e+00,,-3.51680000e-06,2.16076709e-03
-3.51520000e-06,-4.05937500e+00,1.69687500e+03,6.78125000e+00,,-3.51520000e-06,2.17990950e-03
-3.51360000e-06,-4.01406250e+00,1.70007812e+03,5.00000000e+00,,-3.51360000e-06,2.19591544e-03
-3.51200000e-06,-4.09375000e+00,1.69585938e+03,6.85937500e+00,,-3.51200000e-06,2.21202173e-03
-3.51040000e-06,-4.00625000e+00,1.70250000e+03,5.67187500e+00,,-3.51040000e-06,2.22905283e-03
-3.50880000e-06,-4.09531250e+00,1.70226562e+03,5.48437500e+00,,-3.50880000e-06,2.24424666e-03
-3.50720000e-06,-4.12500000e+00,1.70367188e+03,6.56250000e+00,,-3.50720000e-06,2.26065959e-03
-3.50560000e-06,-3.94687500e+00,1.69343750e+03,5.51562500e+00,,-3.50560000e-06,2.27707624e-03
-3.50400000e-06,-4.04375000e+00,1.69804688e+03,5.75000000e+00,,-3.50400000e-06,2.29235948e-03
-3.50240000e-06,-4.03906250e+00,1.70531250e+03,6.50000000e+00,,-3.50240000e-06,2.30903807e-03
-3.50080000e-06,-3.93437500e+00,1.69453125e+03,6.78125000e+00,,-3.50080000e-06,2.32709851e-03
-3.49920000e-06,-4.01406250e+00,1.69742188e+03,5.89062500e+00,,-3.49920000e-06,2.34429049e-03
-3.49760000e-06,-4.07968750e+00,1.69914062e+03,6.57812500e+00,,-3.49760000e-06,2.36123125e-03
-3.49600000e-06,-3.98750000e+00,1.69265625e+03,6.96875000e+00,,-3.49600000e-06,2.37960950e-03
-3.49440000e-06,-4.14218750e+00,1.69695312e+03,6.20312500e+00,,-3.49440000e-06,2.39746715e-03
-3.49280000e-06,-3.99062500e+00,1.69929688e+03,6.51562500e+00,,-3.49280000e-06,2.41474598e-03
-3.49120000e-06,-4.05312500e+00,1.69320312e+03,7.17187500e+00,,-3.49120000e-06,2.43331841e-03
-3.48960000e-06,-4.04531250e+00,1.70000000e+03,5.90625000e+00,,-3.48960000e-06,2.45106569e-03
-3.48800000e-06,-4.15468750e+00,1.69835938e+03,5.10937500e+00,,-3.48800000e-06,2.46604020e-03
-3.48640000e-06,-4.18593750e+00,1.69828125e+03,6.93750000e+00,,-3.48640000e-06,2.48240773e-03
-3.48480000e-06,-4.03281250e+00,1.70023438e+03,6.04687500e+00,,-3.48480000e-06,2.50005815e-03
-3.48320000e-06,-4.11093750e+00,1.70093750e+03,5.54687500e+00,,-3.48320000e-06,2.51583103e-03
-3.48160000e-06,-4.21093750e+00,1.69914062e+03,7.12500000e+00,,-3.48160000e-06,2.53306399e-03
-3.48000000e-06,-4.00312500e+00,1.69476562e+03,6.37500000e+00,,-3.48000000e-06,2.55139242e-03
-3.47840000e-06,-4.02656250e+00,1.69312500e+03,5.37500000e+00,,-3.47840000e-06,2.56731617e-03
-3.47680000e-06,-4.06250000e+00,1.70007812e+03,6.25000000e+00,,-3.47680000e-06,2.58309697e-03
-3.47520000e-06,-4.08281250e+00,1.69484375e+03,6.42187500e+00,,-3.47520000e-06,2.60030455e-03
-3.47360000e-06,-4.13906250e+00,1.69500000e+03,5.65625000e+00,,-3.47360000e-06,2.61668162e-03
-3.47200000e-06,-4.13750000e+00,1.69835938e+03,5.87500000e+00,,-3.47200000e-06,2.63233390e-03
-3.47040000e-06,-4.06875000e+00,1.69617188e+03,7.12500000e+00,,-3.47040000e-06,2.64998432e-03
-3.46880000e-06,-4.12656250e+00,1.69851562e+03,5.34375000e+00,,-3.46880000e-06,2.66691367e-03
-3.46720000e-06,-4.14218750e+00,1.69953125e+03,4.85937500e+00,,-3.46720000e-06,2.68078176e-03
-3.46560000e-06,-4.09531250e+00,1.69585938e+03,6.87500000e+00,,-3.46560000e-06,2.69671599e-03
-3.46400000e-06,-4.07656250e+00,1.69554688e+03,4.85937500e+00,,-3.46400000e-06,2.71263462e-03
-3.46240000e-06,-4.09218750e+00,1.69914062e+03,5.29687500e+00,,-3.46240000e-06,2.72642612e-03
-3.46080000e-06,-4.17343750e+00,1.70046875e+03,6.71875000e+00,,-3.46080000e-06,2.74276617e-03
-3.45920000e-06,-4.13906250e+00,1.69992188e+03,5.84375000e+00,,-3.45920000e-06,2.75985338e-03
-3.45760000e-06,-4.10625000e+00,1.70046875e+03,5.82812500e+00,,-3.45760000e-06,2.77572894e-03
-3.45600000e-06,-4.12343750e+00,1.70562500e+03,6.93750000e+00,,-3.45600000e-06,2.79312348e-03
-3.45440000e-06,-4.06406250e+00,1.69945312e+03,6.76562500e+00,,-3.45440000e-06,2.81178788e-03
-3.45280000e-06,-3.99062500e+00,1.69867188e+03,5.32812500e+00,,-3.45280000e-06,2.82822666e-03
-3.45120000e-06,-4.08750000e+00,1.70554688e+03,6.40625000e+00,,-3.45120000e-06,2.84420815e-03
-3.44960000e-06,-3.96562500e+00,1.69726562e+03,7.26562500e+00,,-3.44960000e-06,2.86281435e-03
-3.44800000e-06,-4.11718750e+00,1.69835938e+03,6.43750000e+00,,-3.44800000e-06,2.88142636e-03
-3.44640000e-06,-4.11718750e+00,1.70078125e+03,5.59375000e+00,,-3.44640000e-06,2.89778388e-03
-3.44480000e-06,-4.01093750e+00,1.69671875e+03,6.81250000e+00,,-3.44480000e-06,2.91464198e-03
-3.44320000e-06,-4.15625000e+00,1.69937500e+03,6.15625000e+00,,-3.44320000e-06,2.93225842e-03
-3.44160000e-06,-4.08125000e+00,1.70281250e+03,4.95312500e+00,,-3.44160000e-06,2.94737518e-03
-3.44000000e-06,-3.93437500e+00,1.69765625e+03,6.87500000e+00,,-3.44000000e-06,2.96345958e-03
-3.43840000e-06,-4.07968750e+00,1.70085938e+03,6.20312500e+00,,-3.43840000e-06,2.98123714e-03
-3.43680000e-06,-4.07812500e+00,1.69796875e+03,5.59375000e+00,,-3.43680000e-06,2.99727614e-03
-3.43520000e-06,-4.05468750e+00,1.69976562e+03,6.87500000e+00,,-3.43520000e-06,3.01422318e-03
-3.43360000e-06,-4.05156250e+00,1.69835938e+03,5.48437500e+00,,-3.43360000e-06,3.03102355e-03
-3.43200000e-06,-4.04218750e+00,1.70031250e+03,5.03125000e+00,,-3.43200000e-06,3.04531888e-03
-3.43040000e-06,-4.14375000e+00,1.70023438e+03,6.90625000e+00,,-3.43040000e-06,3.06155649e-03
-3.42880000e-06,-4.06093750e+00,1.69429688e+03,6.07812500e+00,,-3.42880000e-06,3.07918875e-03
-3.42720000e-06,-4.06718750e+00,1.70031250e+03,5.29687500e+00,,-3.42720000e-06,3.09463241e-03
-3.42560000e-06,-4.17656250e+00,1.70070312e+03,6.50000000e+00,,-3.42560000e-06,3.11068119e-03
-3.42400000e-06,-4.07031250e+00,1.69500000e+03,5.84375000e+00,,-3.42400000e-06,3.12744896e-03
-3.42240000e-06,-4.11875000e+00,1.70328125e+03,5.14062500e+00,,-3.42240000e-06,3.14237783e-03
-3.42080000e-06,-4.10156250e+00,1.70335938e+03,5.35937500e+00,,-3.42080000e-06,3.15668574e-03
-3.41920000e-06,-4.00781250e+00,1.69617188e+03,5.39062500e+00,,-3.41920000e-06,3.17130354e-03
-3.41760000e-06,-4.10000000e+00,1.69703125e+03,5.15625000e+00,,-3.41760000e-06,3.18561844e-03
-3.41600000e-06,-4.09062500e+00,1.70242188e+03,5.21875000e+00,,-3.41600000e-06,3.19972634e-03
-3.41440000e-06,-4.15468750e+00,1.69710938e+03,6.67187500e+00,,-3.41440000e-06,3.21589224e-03
-3.41280000e-06,-4.07343750e+00,1.70031250e+03,5.89062500e+00,,-3.41280000e-06,3.23296338e-03
-3.41120000e-06,-4.03281250e+00,1.69929688e+03,5.35937500e+00,,-3.41120000e-06,3.24826175e-03
-3.40960000e-06,-4.14687500e+00,1.69984375e+03,6.71875000e+00,,-3.40960000e-06,3.26468423e-03
-3.40800000e-06,-4.07968750e+00,1.69796875e+03,5.42187500e+00,,-3.40800000e-06,3.28118587e-03
-3.40640000e-06,-3.97968750e+00,1.70187500e+03,4.76562500e+00,,-3.40640000e-06,3.29503929e-03
-3.40480000e-06,-4.16562500e+00,1.70250000e+03,6.62500000e+00,,-3.40480000e-06,3.31055094e-03
-3.40320000e-06,-4.01406250e+00,1.69835938e+03,5.25000000e+00,,-3.40320000e-06,3.32670729e-03
-3.40160000e-06,-4.05312500e+00,1.69929688e+03,5.31250000e+00,,-3.40160000e-06,3.34106246e-03
-3.40000000e-06,-4.15781250e+00,1.70500000e+03,6.40625000e+00,,-3.40000000e-06,3.35702254e-03
-3.39840000e-06,-4.02031250e+00,1.69562500e+03,6.39062500e+00,,-3.39840000e-06,3.37442965e-03
-3.39680000e-06,-4.08906250e+00,1.69984375e+03,5.48437500e+00,,-3.39680000e-06,3.39055667e-03
-3.39520000e-06,-4.13125000e+00,1.70789062e+03,5.40625000e+00,,-3.39520000e-06,3.40540125e-03
